{"totalHits": 80, "currentPage": 1, "totalPages": 4, "pageList": [1, 2, 3, 4], "foodSearchCriteria": {"query": "Fanta", "generalSearchInput": "Fanta", "pageNumber": 1, "sortBy": "dataType.keyword", "sortOrder": "asc", "numberOfResultsPerPage": 50, "pageSize": 25, "requireAllWords": false}, "foods": [{"fdcId": 539786, "description": "FANTA, SODA, ORANGE", "lowercaseDescription": "fanta, soda, orange", "dataType": "Branded", "gtinUpc": "40822938", "publishedDate": "2019-04-01", "brandOwner": "FANTA", "ingredients": "CARBONATED WATER, SUGAR, ORANGE FRUIT FROM CONCENTRATE (5%), CITRIC ACID, VEGETABLE CONCENTRATES (CARROT, PUMPKIN), NATURAL ORANGE FLAVOURINGS WITH OTHER NATURAL FLAVOURINGS. PRESERVATIVE (POTASSIUM SORBATE), MALIC ACID, ACIDITY REGULATOR (SODIUM CITRATE), SWEETENERS (ACESULFAME K, ASPARTAME), ANTIOXIDANT (ASCORBIC ACID), STABLISER (GUAR GUM).", "allHighlightFields": "<b>Brand Owner</b>: <em>FANTA</em>", "score": -68.564026, "foodNutrients": [{"nutrientId": 1005, "nutrientName": "Carbohydrate, by difference", "nutrientNumber": "205", "unitName": "G", "derivationCode": "LCCS", "derivationDescription": "Calculated from value per serving size measure", "value": 6.9}, {"nutrientId": 1008, "nutrientName": "Energy", "nutrientNumber": "208", "unitName": "KCAL", "derivationCode": "LCCS", "derivationDescription": "Calculated from value per serving size measure", "value": 29.0}, {"nutrientId": 2000, "nutrientName": "Sugars, total including NLEA", "nutrientNumber": "269", "unitName": "G", "derivationCode": "LCCS", "derivationDescription": "Calculated from value per serving size measure", "value": 6.9}]}, {"fdcId": 940294, "description": "ORANGE FANTA, ORANGE", "lowercaseDescription": "orange fanta, orange", "dataType": "Branded", "gtinUpc": "027000002186", "publishedDate": "2020-05-28", "brandOwner": "Conagra Brands, Inc.", "ingredients": "WATER, SUGAR, LESS THAN 2% OF: CARRAGEENAN, CITRIC ACID, SODIUM CITRATE, POTASSIUM CITRATE, LOCUST BEAN GUM, ADIPIC ACID, NATURAL FLAVOR, YELLOW 6.", "allHighlightFields": "", "score": -73.22025, "foodNutrients": [{"nutrientId": 1003, "nutrientName": "Protein", "nutrientNumber": "203", "unitName": "G", "derivationCode": "LCCS", "derivationDescription": "Calculated from value per serving size measure", "value": 3.26}, {"nutrientId": 1005, "nutrientName": "Carbohydrate, by difference", "nutrientNumber": "205", "unitName": "G", "derivationCode": "LCCS", "derivationDescription": "Calculated from value per serving size measure", "value": 22.8}, {"nutrientId": 1008, "nutrientName": "Energy", "nutrientNumber": "208", "unitName": "KCAL", "derivationCode": "LCCS", "derivationDescription": "Calculated from value per serving size measure", "value": 98.0}, {"nutrientId": 2000, "nutrientName": "Sugars, total including NLEA", "nutrientNumber": "269", "unitName": "G", "derivationCode": "LCCS", "derivationDescription": "Calculated from value per serving size measure", "value": 21.7}, {"nutrientId": 1093, "nutrientName": "Sodium, Na", "nutrientNumber": "307", "unitName": "MG", "derivationCode": "LCCS", "derivationDescription": "Calculated from value per serving size measure", "value": 65.0}, {"nutrientId": 1235, "nutrientName": "Sugars, added", "nutrientNumber": "539", "unitName": "G", "derivationCode": "LCCS", "derivationDescription": "Calculated from value per serving size measure", "value": 21.7}, {"nutrientId": 1257, "nutrientName": "Fatty acids, total trans", "nutrientNumber": "605", "unitName": "G", "derivationCode": "LCCS", "derivationDescription": "Calculated from value per serving size measure", "value": 0.0}, {"nutrientId": 1292, "nutrientName": "Fatty acids, total monounsaturated", "nutrientNumber": "645", "unitName": "G", "derivationCode": "LCCS", "derivationDescription": "Calculated from value per serving size measure", "value": 0.0}, {"nutrientId": 1293, "nutrientName": "Fatty acids, total polyunsaturated", "nutrientNumber": "646", "unitName": "G", "derivationCode": "LCCS", "derivationDescription": "Calculated from value per serving size measure", "value": 0.0}]}, {"fdcId": 539789, "description": "FANTA, SODA, RASPBERRY & PASSIONFRUIT", "lowercaseDescription": "fanta, soda, raspberry & passionfruit", "dataType": "Branded", "gtinUpc": "5449000203243", "publishedDate": "2019-04-01", "brandOwner": "FANTA", "ingredients": "CARBONATED WATER, SUGAR, FRUIT JUICES FROM CONCENTRATE 3% (ORANGE 2.8%, RASPBERRY 0.1%, PASSIONFRUIT 0.1%), CITRIC ACID, MALIC ACID, ACIDITY REGULATOR (SODIUM GLUCONATE), PRESERVATIVE (POTASSIUM SORBATE), FRUIT AND VEGETABLE CONCENTRATES (BLACKCURRANT, CARROT), STABILISERS (ACACIA GUM, GLYCEROL ESTERS OF WOOD ROSIN), SWEETENER (STEVIOL GLYCOSIDES), ANTIOXIDANT (ASCORBIC ACID), NATURAL FLAVOURINGS.", "allHighlightFields": "<b>Brand Owner</b>: <em>FANTA</em>", "score": -113.42914, "foodNutrients": [{"nutrientId": 1003, "nutrientName": "Protein", "nutrientNumber": "203", "unitName": "G", "derivationCode": "LCCS", "derivationDescription": "Calculated from value per serving size measure", "value": 0.0}, {"nutrientId": 1004, "nutrientName": "Total lipid (fat)", "nutrientNumber": "204", "unitName": "G", "derivationCode": "LCCS", "derivationDescription": "Calculated from value per serving size measure", "value": 0.0}, {"nutrientId": 1005, "nutrientName": "Carbohydrate, by difference", "nutrientNumber": "205", "unitName": "G", "derivationCode": "LCCS", "derivationDescription": "Calculated from value per serving size measure", "value": 6.7}, {"nutrientId": 1008, "nutrientName": "Energy", "nutrientNumber": "208", "unitName": "KCAL", "derivationCode": "LCCS", "derivationDescription": "Calculated from value per serving size measure", "value": 28.0}, {"nutrientId": 2000, "nutrientName": "Sugars, total including NLEA", "nutrientNumber": "269", "unitName": "G", "derivationCode": "LCCS", "derivationDescription": "Calculated from value per serving size measure", "value": 6.7}, {"nutrientId": 1258, "nutrientName": "Fatty acids, total saturated", "nutrientNumber": "606", "unitName": "G", "derivationCode": "LCCS", "derivationDescription": "Calculated from value per serving size measure", "value": 0.0}]}, {"fdcId": 539787, "description": "FANTA, ZERO, SODA, ORANGE", "lowercaseDescription": "fanta, zero, soda, orange", "dataType": "Branded", "gtinUpc": "54491397", "publishedDate": "2019-04-01", "brandOwner": "FANTA", "ingredients": "CARBONATED WATER, ORANGE FRUIT FROM CONCENTRATE (4%), CITRIC ACID, SWEETENERS (ACESULFAME K, ASPARTAME), PRESERVATIVE (POTASSIUM SORBATE), MALIC ACID, NATURAL ORANGE FLAVOURING WITH OTHER NATURAL FLAVOURINGS, VEGETABLE CONCENTRATES (CARROT, PUMPKIN), ANTIOXIDANT (ASCORBIC ACID), STABILISER (GUAR GUM).", "allHighlightFields": "<b>Brand Owner</b>: <em>FANTA</em>", "score": -113.42914, "foodNutrients": [{"nutrientId": 1005, "nutrientName": "Carbohydrate, by difference", "nutrientNumber": "205", "unitName": "G", "derivationCode": "LCCS", "derivationDescription": "Calculated from value per serving size measure", "value": 0.5}, {"nutrientId": 1008, "nutrientName": "Energy", "nutrientNumber": "208", "unitName": "KCAL", "derivationCode": "LCCS", "derivationDescription": "Calculated from value per serving size measure", "value": 3.0}, {"nutrientId": 2000, "nutrientName": "Sugars, total including NLEA", "nutrientNumber": "269", "unitName": "G", "derivationCode": "LCCS", "derivationDescription": "Calculated from value per serving size measure", "value": 0.5}]}, {"fdcId": 979917, "description": "FANTA, SODA, BERRY, BERRY", "lowercaseDescription": "fanta, soda, berry, berry", "dataType": "Branded", "gtinUpc": "049000067736", "publishedDate": "2020-06-26", "brandOwner": "Coca-Cola USA Operations", "ingredients": "CARBONATED WATER, HIGH FRUCTOSE CORN SYRUP, NATURAL FLAVORS, CITRIC ACID, MALIC ACID, SODIUM CITRATE, POTASSIUM SORBATE AND SODIUM BENZOATE (TO PROTECT TASTE), BLUE 1.", "allHighlightFields": "", "score": -118.982666, "foodNutrients": []}, {"fdcId": 978797, "description": "FANTA, SODA, BERRY, BERRY", "lowercaseDescription": "fanta, soda, berry, berry", "dataType": "Branded", "gtinUpc": "049000067729", "publishedDate": "2020-06-26", "brandOwner": "Coca-Cola USA Operations", "ingredients": "CARBONATED WATER, HIGH FRUCTOSE CORN SYRUP, NATURAL FLAVORS, CITRIC ACID, MALIC ACID, SODIUM CITRATE, POTASSIUM SORBATE AND SODIUM BENZOATE (TO PROTECT TASTE), BLUE 1.", "allHighlightFields": "", "score": -118.982666, "foodNutrients": []}, {"fdcId": 991585, "description": "FANTA, SODA, GRAPE, GRAPE", "lowercaseDescription": "fanta, soda, grape, grape", "dataType": "Branded", "gtinUpc": "049000051049", "publishedDate": "2020-06-26", "brandOwner": "Coca-Cola USA Operations", "ingredients": "CARBONATED WATER, HIGH FRUCTOSE CORN SYRUP, NATURAL FLAVORS, TARTARIC ACID, POTASSIUM SORBATE AND SODIUM BENZOATE (TO PROTECT TASTE), CITRIC ACID, RED 40, BLUE 1.", "allHighlightFields": "", "score": -118.982666, "foodNutrients": []}, {"fdcId": 989375, "description": "FANTA, SODA, GRAPE, GRAPE", "lowercaseDescription": "fanta, soda, grape, grape", "dataType": "Branded", "gtinUpc": "049000062816", "publishedDate": "2020-06-26", "brandOwner": "Coca-Cola USA Operations", "ingredients": "CARBONATED WATER, SUGAR, CITRIC ACID, SODIUM CITRATE, SODIUM BENZOATE (TO PROTECT TASTE), RED 40, ARTIFICIAL FLAVORS, BLUE 1.", "allHighlightFields": "", "score": -118.982666, "foodNutrients": []}, {"fdcId": 991633, "description": "FANTA, SODA, GRAPE, GRAPE", "lowercaseDescription": "fanta, soda, grape, grape", "dataType": "Branded", "gtinUpc": "049000055740", "publishedDate": "2020-06-26", "brandOwner": "Coca-Cola USA Operations", "ingredients": "CARBONATED WATER, HIGH FRUCTOSE CORN SYRUP, NATURAL FLAVORS, TARTARIC ACID, POTASSIUM SORBATE AND SODIUM BENZOATE (TO PROTECT TASTE), CITRIC ACID, RED 40, BLUE 1.", "allHighlightFields": "", "score": -118.982666, "foodNutrients": []}, {"fdcId": 991565, "description": "FANTA, SODA, GRAPEFRUIT, GRAPEFRUIT", "lowercaseDescription": "fanta, soda, grapefruit, grapefruit", "dataType": "Branded", "gtinUpc": "049000048568", "publishedDate": "2020-06-26", "brandOwner": "Coca-Cola USA Operations", "ingredients": "CARBONATED WATER, HIGH FRUCTOSE CORN SYRUP, CITRIC ACID, CONCENTRATED GRAPEFRUIT JUICE, SODIUM BENZOATE AND EDTA (TO PROTECT TASTE), ACACIA, NATURAL FLAVORS, GLYCEROL ESTER OF WOOD ROSIN, BROMINATED VEGETABLE OIL, CAROB BEAN GUM.", "allHighlightFields": "", "score": -118.982666, "foodNutrients": []}, {"fdcId": 991567, "description": "FANTA, SODA, GRAPEFRUIT, GRAPEFRUIT", "lowercaseDescription": "fanta, soda, grapefruit, grapefruit", "dataType": "Branded", "gtinUpc": "049000048698", "publishedDate": "2020-06-26", "brandOwner": "Coca-Cola USA Operations", "ingredients": "CARBONATED WATER, HIGH FRUCTOSE CORN SYRUP, CITRIC ACID, CONCENTRATED GRAPEFRUIT JUICE, SODIUM BENZOATE AND EDTA (TO PROTECT TASTE), ACACIA, NATURAL FLAVORS, GLYCEROL ESTER OF WOOD ROSIN, BROMINATED VEGETABLE OIL, CAROB BEAN GUM.", "allHighlightFields": "", "score": -118.982666, "foodNutrients": []}, {"fdcId": 978199, "description": "FANTA, SODA, MANGO, MANGO", "lowercaseDescription": "fanta, soda, mango, mango", "dataType": "Branded", "gtinUpc": "049000066975", "publishedDate": "2020-06-26", "brandOwner": "Coca-Cola USA Operations", "ingredients": "CARBONATED WATER, HIGH FRUCTOSE CORN SYRUP, NATURAL FLAVORS, CITRIC ACID, POTASSIUM SORBATE (TO PROTECT TASTE), MALIC ACID, ACACIA GUM, SODIUM BENZOATE (TO PROTECT TASTE), YELLOW 6", "allHighlightFields": "", "score": -118.982666, "foodNutrients": []}, {"fdcId": 978187, "description": "FANTA, SODA, ORANGE, ORANGE", "lowercaseDescription": "fanta, soda, orange, orange", "dataType": "Branded", "gtinUpc": "04926502", "publishedDate": "2020-06-26", "brandOwner": "Coca-Cola USA Operations", "ingredients": "CARBONATED WATER, HIGH FRUCTOSE CORN SYRUP, CITRIC ACID, SODIUM BENZOATE (TO PROTECT TASTE), NATURAL FLAVORS, MODIFIED FOOD STARCH, SODIUM POLYPHOSPHATES, GLYCEROL ESTER OF ROSIN, YELLOW 6, RED 40.", "allHighlightFields": "", "score": -118.982666, "foodNutrients": []}, {"fdcId": 979909, "description": "FANTA, SODA, ORANGE, ORANGE", "lowercaseDescription": "fanta, soda, orange, orange", "dataType": "Branded", "gtinUpc": "049000052404", "publishedDate": "2020-06-26", "brandOwner": "Coca-Cola USA Operations", "ingredients": "CARBONATED WATER, HIGH FRUCTOSE CORN SYRUP, CITRIC ACID, SODIUM BENZOATE (TO PROTECT TASTE), NATURAL FLAVORS, MODIFIED FOOD STARCH, SODIUM POLYPHOSPHATES, GLYCEROL ESTER OF ROSIN, YELLOW 6, RED 40.", "allHighlightFields": "", "score": -118.982666, "foodNutrients": []}, {"fdcId": 979921, "description": "FANTA, SODA, ORANGE, ORANGE", "lowercaseDescription": "fanta, soda, orange, orange", "dataType": "Branded", "gtinUpc": "049000068641", "publishedDate": "2020-06-26", "brandOwner": "Coca-Cola USA Operations", "ingredients": "CARBONATED WATER, HIGH FRUCTOSE CORN SYRUP, CITRIC ACID, SODIUM BENZOATE (TO PROTECT TASTE), NATURAL FLAVORS, MODIFIED FOOD STARCH, SODIUM POLYPHOSPHATES, GLYCEROL ESTER OF ROSIN, YELLOW 6, RED 40.", "allHighlightFields": "", "score": -118.982666, "foodNutrients": []}, {"fdcId": 989661, "description": "FANTA, SODA, ORANGE, ORANGE", "lowercaseDescription": "fanta, soda, orange, orange", "dataType": "Branded", "gtinUpc": "049000047844", "publishedDate": "2020-06-26", "brandOwner": "Coca-Cola USA Operations", "ingredients": "CARBONATED WATER, SUGAR, CITRIC ACID, SODIUM BENZOATE (TO PROTECT TASTE) MODIFIED FOOD STARCH, NATURAL AND ARTIFICIAL FLAVORS, SUCROSE ACETATE ISOBUTYRATE, SODIUM POLYPHOSPHATE, COCONUT OIL, YELLOW 6, BROMMATED VEGETABLE OIL, RED 40, DIOCTYL SODIUM SULFOSUCCINATE.", "allHighlightFields": "", "score": -118.982666, "foodNutrients": []}, {"fdcId": 981923, "description": "FANTA, SODA, ORANGE, ORANGE", "lowercaseDescription": "fanta, soda, orange, orange", "dataType": "Branded", "gtinUpc": "049000047851", "publishedDate": "2020-06-26", "brandOwner": "Coca-Cola USA Operations", "ingredients": "CARBONATED WATER, SUGAR, CITRIC ACID, SODIUM BENZOATE (TO PROTECT TASTE), MODIFIED FOOD STARCH, NATURAL AND ARTIFICIAL FLAVORS, SUCROSE ACETATE ISOBUTYRATE, SODIUM POLYPHOSPHATES, COCONUT OIL, YELLOW 6, BROMINATED VEGETABLE OIL, RED 40, DIOCTYL SODIUM SULFOSUCCINATE.", "allHighlightFields": "", "score": -118.982666, "foodNutrients": []}, {"fdcId": 980659, "description": "FANTA, SODA, ORANGE, ORANGE", "lowercaseDescription": "fanta, soda, orange, orange", "dataType": "Branded", "gtinUpc": "049000055436", "publishedDate": "2020-06-26", "brandOwner": "Coca-Cola USA Operations", "ingredients": "CARBONATED WATER, HIGH FRUCTOSE CORN SYRUP, CITRIC ACID, SODIUM BENZOATE (TO PROTECT TASTE), NATURAL FLAVORS, MODIFIED FOOD STARCH, SODIUM POLYPHOSPHATES, GLYCEROL ESTER OF ROSIN, YELLOW 6, RED 40.", "allHighlightFields": "", "score": -118.982666, "foodNutrients": []}, {"fdcId": 991589, "description": "FANTA, SODA, ORANGE, ORANGE", "lowercaseDescription": "fanta, soda, orange, orange", "dataType": "Branded", "gtinUpc": "049000051056", "publishedDate": "2020-06-26", "brandOwner": "Coca-Cola USA Operations", "ingredients": "CARBONATED WATER, HIGH FRUCTOSE CORN SYRUP, CITRIC ACID, SODIUM BENZOATE (TO PROTECT TASTE), NATURAL FLAVORS, MODIFIED FOOD STARCH, SODIUM POLYPHOSPHATES, GLYCEROL ESTER OF ROSIN, YELLOW 6, BROMINATED VEGETABLE OIL, RED 40.", "allHighlightFields": "", "score": -118.982666, "foodNutrients": []}, {"fdcId": 991591, "description": "FANTA, SODA, PEACH, PEACH", "lowercaseDescription": "fanta, soda, peach, peach", "dataType": "Branded", "gtinUpc": "049000051063", "publishedDate": "2020-06-26", "brandOwner": "Coca-Cola USA Operations", "ingredients": "CARBONATED WATER, HIGH FRUCTOSE CORN SYRUP, CITRIC ACID, NATURAL FLAVORS, SODIUM BENZOATE (TO PROTECT TASTE), YELLOW 6, RED 40.", "allHighlightFields": "", "score": -118.982666, "foodNutrients": []}, {"fdcId": 991629, "description": "FANTA, SODA, PEACH, PEACH", "lowercaseDescription": "fanta, soda, peach, peach", "dataType": "Branded", "gtinUpc": "049000055719", "publishedDate": "2020-06-26", "brandOwner": "Coca-Cola USA Operations", "ingredients": "CARBONATED WATER, HIGH FRUCTOSE CORN SYRUP, CITRIC ACID, NATURAL FLAVORS, SODIUM BENZOATE (TO PROTECT TASTE), YELLOW 6, RED 40.", "allHighlightFields": "", "score": -118.982666, "foodNutrients": []}, {"fdcId": 989373, "description": "FANTA, SODA, PINEAPPLE, PINEAPPLE", "lowercaseDescription": "fanta, soda, pineapple, pineapple", "dataType": "Branded", "gtinUpc": "049000062830", "publishedDate": "2020-06-26", "brandOwner": "Coca-Cola USA Operations", "ingredients": "CARBONATED WATER, SUGAR, CITRIC ACID, ARTIFICIAL AND NATURAL FLAVORS, SODIUM BENZOATE (TO PROTECT TASTE), MODIFIED FOOD STARCH, SODIUM HEXAMETAPHOSPHATE, COCONUT OIL, SUCROSE ACETATE ISOBUTYRATE, YELLOW 5, DIOCTYL SODIUM SULFOSUCCINATE, YELLOW 6.", "allHighlightFields": "", "score": -118.982666, "foodNutrients": []}, {"fdcId": 991593, "description": "FANTA, SODA, PINEAPPLE, PINEAPPLE", "lowercaseDescription": "fanta, soda, pineapple, pineapple", "dataType": "Branded", "gtinUpc": "049000051070", "publishedDate": "2020-06-26", "brandOwner": "Coca-Cola USA Operations", "ingredients": "CARBONATED WATER, HIGH FRUCTOSE CORN SYRUP, CITRIC ACID, ACACIA, SODIUM BENZOATE (TO PROTECT TASTE), SODIUM CITRATE, NATURAL AND ARTIFICIAL FLAVORS, GLYCEROL ESTER OF WOOD ROSIN, BROMINATED VEGETABLE OIL, YELLOW 5, YELLOW 6.", "allHighlightFields": "", "score": -118.982666, "foodNutrients": []}, {"fdcId": 986415, "description": "FANTA, SODA, STRAWBERRY, STRAWBERRY", "lowercaseDescription": "fanta, soda, strawberry, strawberry", "dataType": "Branded", "gtinUpc": "049000069211", "publishedDate": "2020-06-26", "brandOwner": "Coca-Cola USA Operations", "ingredients": "CARBONATED WATER, HIGH FRUCTOSE CORN SYRUP, CITRIC ACID, NATURAL FLAVORS, SODIUM BENZOATE (TO PROTECT TASTE), RED 40.", "allHighlightFields": "", "score": -118.982666, "foodNutrients": []}, {"fdcId": 991531, "description": "FANTA, SODA, STRAWBERRY, STRAWBERRY", "lowercaseDescription": "fanta, soda, strawberry, strawberry", "dataType": "Branded", "gtinUpc": "049000028652", "publishedDate": "2020-06-26", "brandOwner": "Coca-Cola USA Operations", "ingredients": "CARBONATED WATER, HIGH FRUCTOSE CORN SYRUP, CITRIC ACID, NATURAL FLAVORS, SODIUM BENZOATE (TO PROTECT TASTE), RED 40.", "allHighlightFields": "", "score": -118.982666, "foodNutrients": []}], "aggregations": {"dataType": {"Branded": 78, "Survey (FNDDS)": 2}, "nutrients": {}}}