{"totalHits": 12518, "currentPage": 1, "totalPages": 501, "pageList": [1, 2, 3, 4, 5, 6, 7, 8, 9, 10], "foodSearchCriteria": {"query": "Crave Cooler Fanta Wild Cherry Small", "generalSearchInput": "Crave Cooler Fanta Wild Cherry Small", "pageNumber": 1, "sortBy": "dataType.keyword", "sortOrder": "asc", "numberOfResultsPerPage": 50, "pageSize": 25, "requireAllWords": false}, "foods": [{"fdcId": 1010643, "description": "COOLERS, WILD CHERRY FLAVORED JUICE DRINK, WILD CHERRY", "lowercaseDescription": "coolers, wild cherry flavored juice drink, wild cherry", "dataType": "Branded", "gtinUpc": "075450008494", "publishedDate": "2020-06-26", "brandOwner": "Hy-Vee, Inc.", "ingredients": "WATER, HIGH FRUCTOSE CORN SYRUP, FRUIT JUICE CONCENTRATE (APPLE AND PEAR), CITRIC ACID, NATURAL FLAVORS, VITAMIN E ACETATE.", "allHighlightFields": "", "score": 335.67548, "foodNutrients": [{"nutrientId": 1003, "nutrientName": "Protein", "nutrientNumber": "203", "unitName": "G", "derivationCode": "LCCS", "derivationDescription": "Calculated from value per serving size measure", "value": 0.0}, {"nutrientId": 1004, "nutrientName": "Total lipid (fat)", "nutrientNumber": "204", "unitName": "G", "derivationCode": "LCCD", "derivationDescription": "Calculated from a daily value percentage per serving size measure", "value": 0.0}, {"nutrientId": 1005, "nutrientName": "Carbohydrate, by difference", "nutrientNumber": "205", "unitName": "G", "derivationCode": "LCCS", "derivationDescription": "Calculated from value per serving size measure", "value": 9.6}, {"nutrientId": 1008, "nutrientName": "Energy", "nutrientNumber": "208", "unitName": "KCAL", "derivationCode": "LCCS", "derivationDescription": "Calculated from value per serving size measure", "value": 40.0}, {"nutrientId": 2000, "nutrientName": "Sugars, total including NLEA", "nutrientNumber": "269", "unitName": "G", "derivationCode": "LCCS", "derivationDescription": "Calculated from value per serving size measure", "value": 9.04}, {"nutrientId": 1079, "nutrientName": "Fiber, total dietary", "nutrientNumber": "291", "unitName": "G", "derivationCode": "LCCD", "derivationDescription": "Calculated from a daily value percentage per serving size measure", "value": 0.0}, {"nutrientId": 1087, "nutrientName": "Calcium, Ca", "nutrientNumber": "301", "unitName": "MG", "derivationCode": "LCCD", "derivationDescription": "Calculated from a daily value percentage per serving size measure", "value": 0.0}, {"nutrientId": 1089, "nutrientName": "Iron, Fe", "nutrientNumber": "303", "unitName": "MG", "derivationCode": "LCCD", "derivationDescription": "Calculated from a daily value percentage per serving size measure", "value": 0.0}, {"nutrientId": 1093, "nutrientName": "Sodium, Na", "nutrientNumber": "307", "unitName": "MG", "derivationCode": "LCCS", "derivationDescription": "Calculated from value per serving size measure", "value": 3.0}, {"nutrientId": 1104, "nutrientName": "Vitamin A, IU", "nutrientNumber": "318", "unitName": "IU", "derivationCode": "LCCD", "derivationDescription": "Calculated from a daily value percentage per serving size measure", "value": 0.0}, {"nutrientId": 1162, "nutrientName": "Vitamin C, total ascorbic acid", "nutrientNumber": "401", "unitName": "MG", "derivationCode": "LCCD", "derivationDescription": "Calculated from a daily value percentage per serving size measure", "value": 0.0}, {"nutrientId": 1253, "nutrientName": "Cholesterol", "nutrientNumber": "601", "unitName": "MG", "derivationCode": "LCCD", "derivationDescription": "Calculated from a daily value percentage per serving size measure", "value": 0.0}, {"nutrientId": 1257, "nutrientName": "Fatty acids, total trans", "nutrientNumber": "605", "unitName": "G", "derivationCode": "LCCS", "derivationDescription": "Calculated from value per serving size measure", "value": 0.0}, {"nutrientId": 1258, "nutrientName": "Fatty acids, total saturated", "nutrientNumber": "606", "unitName": "G", "derivationCode": "LCCD", "derivationDescription": "Calculated from a daily value percentage per serving size measure", "value": 0.0}]}, {"fdcId": 415791, "description": "ZEIGLER'S, SMALL BATCH, STRAWBERRY KIWI COOLER", "lowercaseDescription": "zeigler's, small batch, strawberry kiwi cooler", "dataType": "Branded", "gtinUpc": "034256140647", "publishedDate": "2019-04-01", "brandOwner": "Zeigler's Beverages LLC", "ingredients": "WATER, SUGAR, WHITE GRAPE JUICE CONCENTRATE, KIWI JUICE CONCENTRATE, NATURAL FLAVORS, STRAWBERRY JUICE CONCENTRATE, CITRIC ACID, MALIC ACID, POTASSIUM SORBATE (PRESERVATIVE), ARTIFICIAL COLORS (RED #40, YELLOW #6).", "allHighlightFields": "", "score": 110.82918, "foodNutrients": [{"nutrientId": 1004, "nutrientName": "Total lipid (fat)", "nutrientNumber": "204", "unitName": "G", "derivationCode": "LCCD", "derivationDescription": "Calculated from a daily value percentage per serving size measure", "value": 0.0}, {"nutrientId": 1079, "nutrientName": "Fiber, total dietary", "nutrientNumber": "291", "unitName": "G", "derivationCode": "LCCD", "derivationDescription": "Calculated from a daily value percentage per serving size measure", "value": 0.0}, {"nutrientId": 1087, "nutrientName": "Calcium, Ca", "nutrientNumber": "301", "unitName": "MG", "derivationCode": "LCCD", "derivationDescription": "Calculated from a daily value percentage per serving size measure", "value": 8.0}, {"nutrientId": 1089, "nutrientName": "Iron, Fe", "nutrientNumber": "303", "unitName": "MG", "derivationCode": "LCCD", "derivationDescription": "Calculated from a daily value percentage per serving size measure", "value": 0.0}, {"nutrientId": 1104, "nutrientName": "Vitamin A, IU", "nutrientNumber": "318", "unitName": "IU", "derivationCode": "LCCD", "derivationDescription": "Calculated from a daily value percentage per serving size measure", "value": 0.0}, {"nutrientId": 1162, "nutrientName": "Vitamin C, total ascorbic acid", "nutrientNumber": "401", "unitName": "MG", "derivationCode": "LCCD", "derivationDescription": "Calculated from a daily value percentage per serving size measure", "value": 0.5}, {"nutrientId": 1253, "nutrientName": "Cholesterol", "nutrientNumber": "601", "unitName": "MG", "derivationCode": "LCCD", "derivationDescription": "Calculated from a daily value percentage per serving size measure", "value": 0.0}, {"nutrientId": 1258, "nutrientName": "Fatty acids, total saturated", "nutrientNumber": "606", "unitName": "G", "derivationCode": "LCCD", "derivationDescription": "Calculated from a daily value percentage per serving size measure", "value": 0.0}, {"nutrientId": 1003, "nutrientName": "Protein", "nutrientNumber": "203", "unitName": "G", "derivationCode": "LCCS", "derivationDescription": "Calculated from value per serving size measure", "value": 0.0}, {"nutrientId": 1005, "nutrientName": "Carbohydrate, by difference", "nutrientNumber": "205", "unitName": "G", "derivationCode": "LCCS", "derivationDescription": "Calculated from value per serving size measure", "value": 12.5}, {"nutrientId": 1008, "nutrientName": "Energy", "nutrientNumber": "208", "unitName": "KCAL", "derivationCode": "LCCS", "derivationDescription": "Calculated from value per serving size measure", "value": 50.0}, {"nutrientId": 2000, "nutrientName": "Sugars, total including NLEA", "nutrientNumber": "269", "unitName": "G", "derivationCode": "LCCS", "derivationDescription": "Calculated from value per serving size measure", "value": 12.5}, {"nutrientId": 1093, "nutrientName": "Sodium, Na", "nutrientNumber": "307", "unitName": "MG", "derivationCode": "LCCS", "derivationDescription": "Calculated from value per serving size measure", "value": 4.0}, {"nutrientId": 1257, "nutrientName": "Fatty acids, total trans", "nutrientNumber": "605", "unitName": "G", "derivationCode": "LCCS", "derivationDescription": "Calculated from value per serving size measure", "value": 0.0}]}, {"fdcId": 964537, "description": "WILD CHERRY BITES, WILD CHERRY", "lowercaseDescription": "wild cherry bites, wild cherry", "dataType": "Branded", "gtinUpc": "075450084412", "publishedDate": "2020-06-26", "brandOwner": "Hy-Vee, Inc.", "ingredients": "CORN SYRUP, HIGH FRUCTOSE CORN SYRUP, ENRICHED WHEAT FLOUR (WHEAT, IRON, NIACIN, THIAMIN, RIBOFLAVIN, FOLIC ACID), MODIFIED FOOD STARCH (CORN), PALM OIL, SOY LECITHIN, GLYCERINE, SUGAR, SALT, SOY MONO- AND DIGLYCERIDES, ARTIFICIAL FLAVOR, CITRIC ACID, SODIUM CITRATE, POTASSIUM SORBATE (PRESERVATIVE), ARTIFICIAL COLOR (FD&C RED NO. 40).", "allHighlightFields": "", "score": 72.70748, "foodNutrients": [{"nutrientId": 1003, "nutrientName": "Protein", "nutrientNumber": "203", "unitName": "G", "derivationCode": "LCCS", "derivationDescription": "Calculated from value per serving size measure", "value": 3.33}, {"nutrientId": 1004, "nutrientName": "Total lipid (fat)", "nutrientNumber": "204", "unitName": "G", "derivationCode": "LCCS", "derivationDescription": "Calculated from value per serving size measure", "value": 3.33}, {"nutrientId": 1005, "nutrientName": "Carbohydrate, by difference", "nutrientNumber": "205", "unitName": "G", "derivationCode": "LCCS", "derivationDescription": "Calculated from value per serving size measure", "value": 73.3}, {"nutrientId": 1008, "nutrientName": "Energy", "nutrientNumber": "208", "unitName": "KCAL", "derivationCode": "LCCS", "derivationDescription": "Calculated from value per serving size measure", "value": 333}, {"nutrientId": 2000, "nutrientName": "Sugars, total including NLEA", "nutrientNumber": "269", "unitName": "G", "derivationCode": "LCCS", "derivationDescription": "Calculated from value per serving size measure", "value": 30.0}, {"nutrientId": 1079, "nutrientName": "Fiber, total dietary", "nutrientNumber": "291", "unitName": "G", "derivationCode": "LCCD", "derivationDescription": "Calculated from a daily value percentage per serving size measure", "value": 0.0}, {"nutrientId": 1087, "nutrientName": "Calcium, Ca", "nutrientNumber": "301", "unitName": "MG", "derivationCode": "LCCS", "derivationDescription": "Calculated from value per serving size measure", "value": 3.0}, {"nutrientId": 1089, "nutrientName": "Iron, Fe", "nutrientNumber": "303", "unitName": "MG", "derivationCode": "LCCD", "derivationDescription": "Calculated from a daily value percentage per serving size measure", "value": 0.0}, {"nutrientId": 1092, "nutrientName": "Potassium, K", "nutrientNumber": "306", "unitName": "MG", "derivationCode": "LCCD", "derivationDescription": "Calculated from a daily value percentage per serving size measure", "value": 0.0}, {"nutrientId": 1093, "nutrientName": "Sodium, Na", "nutrientNumber": "307", "unitName": "MG", "derivationCode": "LCCS", "derivationDescription": "Calculated from value per serving size measure", "value": 333}, {"nutrientId": 1110, "nutrientName": "Vitamin D (D2 + D3), International Units", "nutrientNumber": "324", "unitName": "IU", "derivationCode": "LCCD", "derivationDescription": "Calculated from a daily value percentage per serving size measure", "value": 0.0}, {"nutrientId": 1235, "nutrientName": "Sugars, added", "nutrientNumber": "539", "unitName": "G", "derivationCode": "LCCS", "derivationDescription": "Calculated from value per serving size measure", "value": 30.0}, {"nutrientId": 1253, "nutrientName": "Cholesterol", "nutrientNumber": "601", "unitName": "MG", "derivationCode": "LCCD", "derivationDescription": "Calculated from a daily value percentage per serving size measure", "value": 0.0}, {"nutrientId": 1257, "nutrientName": "Fatty acids, total trans", "nutrientNumber": "605", "unitName": "G", "derivationCode": "LCCS", "derivationDescription": "Calculated from value per serving size measure", "value": 0.0}, {"nutrientId": 1258, "nutrientName": "Fatty acids, total saturated", "nutrientNumber": "606", "unitName": "G", "derivationCode": "LCCS", "derivationDescription": "Calculated from value per serving size measure", "value": 1.67}]}, {"fdcId": 711502, "description": "WILD CHERRY COLA, WILD CHERRY", "lowercaseDescription": "wild cherry cola, wild cherry", "dataType": "Branded", "gtinUpc": "01299007", "publishedDate": "2019-12-06", "brandOwner": "PEPSICO, INC", "ingredients": "CARBONATED WATER, HIGH FRUCTOSE CORN SYRUP, CARAMEL COLOR, SUGAR, PHOSPHORIC ACID, NATURAL FLAVOR, CAFFEINE, CITRIC ACID.", "allHighlightFields": "", "score": 72.70748, "foodNutrients": [{"nutrientId": 1003, "nutrientName": "Protein", "nutrientNumber": "203", "unitName": "G", "derivationCode": "LCCS", "derivationDescription": "Calculated from value per serving size measure", "value": 0.0}, {"nutrientId": 1004, "nutrientName": "Total lipid (fat)", "nutrientNumber": "204", "unitName": "G", "derivationCode": "LCCD", "derivationDescription": "Calculated from a daily value percentage per serving size measure", "value": 0.0}, {"nutrientId": 1005, "nutrientName": "Carbohydrate, by difference", "nutrientNumber": "205", "unitName": "G", "derivationCode": "LCCS", "derivationDescription": "Calculated from value per serving size measure", "value": 11.7}, {"nutrientId": 1008, "nutrientName": "Energy", "nutrientNumber": "208", "unitName": "KCAL", "derivationCode": "LCCS", "derivationDescription": "Calculated from value per serving size measure", "value": 44.0}, {"nutrientId": 2000, "nutrientName": "Sugars, total including NLEA", "nutrientNumber": "269", "unitName": "G", "derivationCode": "LCCS", "derivationDescription": "Calculated from value per serving size measure", "value": 11.7}, {"nutrientId": 1093, "nutrientName": "Sodium, Na", "nutrientNumber": "307", "unitName": "MG", "derivationCode": "LCCS", "derivationDescription": "Calculated from value per serving size measure", "value": 8.0}, {"nutrientId": 1235, "nutrientName": "Sugars, added", "nutrientNumber": "539", "unitName": "G", "derivationCode": "LCCS", "derivationDescription": "Calculated from value per serving size measure", "value": 11.7}]}, {"fdcId": 977913, "description": "WILD CHERRY COLA, WILD CHERRY", "lowercaseDescription": "wild cherry cola, wild cherry", "dataType": "Branded", "gtinUpc": "012000692932", "publishedDate": "2020-06-26", "brandOwner": "Pepsi-Cola North America Inc.", "ingredients": "CARBONATED WATER, HIGH FRUCTOSE CORN SYRUP, CARAMEL COLOR, SUGAR, PHOSPHORIC ACID, NATURAL FLAVOR, CAFFEINE, CITRIC ACID.", "allHighlightFields": "", "score": 72.70748, "foodNutrients": []}, {"fdcId": 989061, "description": "WILD CHERRY COLA, WILD CHERRY", "lowercaseDescription": "wild cherry cola, wild cherry", "dataType": "Branded", "gtinUpc": "012000014901", "publishedDate": "2020-06-26", "brandOwner": "Pepsi-Cola North America Inc.", "ingredients": "CARBONATED WATER, HIGH FRUCTOSE CORN SYRUP, CARAMEL COLOR, SUGAR, PHOSPHORIC ACID, NATURAL FLAVOR, CAFFEINE, CITRIC ACID.", "allHighlightFields": "", "score": 72.70748, "foodNutrients": []}, {"fdcId": 1053687, "description": "WILD CHERRY COLA, WILD CHERRY", "lowercaseDescription": "wild cherry cola, wild cherry", "dataType": "Branded", "gtinUpc": "012000105401", "publishedDate": "2020-06-26", "brandOwner": "Pepsi-Cola North America Inc.", "ingredients": "CARBONATED WATER, HIGH FRUCTOSE CORN SYRUP, CARAMEL COLOR, SUGAR, PHOSPHORIC ACID, NATURAL FLAVOR, CAFFEINE, CITRIC ACID.", "allHighlightFields": "", "score": 72.70748, "foodNutrients": []}, {"fdcId": 989079, "description": "WILD CHERRY COLA, WILD CHERRY", "lowercaseDescription": "wild cherry cola, wild cherry", "dataType": "Branded", "gtinUpc": "012000809996", "publishedDate": "2020-06-26", "brandOwner": "Pepsi-Cola North America Inc.", "ingredients": "CARBONATED WATER, HIGH FRUCTOSE CORN SYRUP, CARAMEL COLOR, SUGAR, PHOSPHORIC ACID, NATURAL FLAVOR, CAFFEINE, CITRIC ACID.", "allHighlightFields": "", "score": 72.70748, "foodNutrients": []}, {"fdcId": 991479, "description": "WILD CHERRY COLA, WILD CHERRY", "lowercaseDescription": "wild cherry cola, wild cherry", "dataType": "Branded", "gtinUpc": "012000502972", "publishedDate": "2020-06-26", "brandOwner": "Pepsi-Cola North America Inc.", "ingredients": "CARBONATED WATER, HIGH FRUCTOSE CORN SYRUP, CARAMEL COLOR, SUGAR, PHOSPHORIC ACID, NATURAL FLAVOR, CAFFEINE, CITRIC ACID.", "allHighlightFields": "", "score": 72.70748, "foodNutrients": []}, {"fdcId": 1053915, "description": "WILD CHERRY COLA, WILD CHERRY", "lowercaseDescription": "wild cherry cola, wild cherry", "dataType": "Branded", "gtinUpc": "012000111341", "publishedDate": "2020-06-26", "brandOwner": "Pepsi-Cola North America Inc.", "ingredients": "CARBONATED WATER, HIGH FRUCTOSE CORN SYRUP, CARAMEL COLOR, SUGAR, PHOSPHORIC ACID, NATURAL FLAVOR, CAFFEINE, CITRIC ACID.", "allHighlightFields": "", "score": 72.70748, "foodNutrients": []}, {"fdcId": 654624, "description": "WILD CHERRY COLA, WILD CHERRY", "lowercaseDescription": "wild cherry cola, wild cherry", "dataType": "Branded", "gtinUpc": "01231100", "publishedDate": "2019-12-06", "brandOwner": "Golden Acre Farms Inc.", "ingredients": "CARBONATED WATER, HIGH FRUCTOSE CORN SYRUP, CARAMEL COLOR, SUGAR, PHOSPHORIC ACID, NATURAL FLAVOR, CAFFEINE, CITRIC ACID.", "allHighlightFields": "", "score": 72.70748, "foodNutrients": [{"nutrientId": 1003, "nutrientName": "Protein", "nutrientNumber": "203", "unitName": "G", "derivationCode": "LCCS", "derivationDescription": "Calculated from value per serving size measure", "value": 0.0}, {"nutrientId": 1004, "nutrientName": "Total lipid (fat)", "nutrientNumber": "204", "unitName": "G", "derivationCode": "LCCD", "derivationDescription": "Calculated from a daily value percentage per serving size measure", "value": 0.0}, {"nutrientId": 1005, "nutrientName": "Carbohydrate, by difference", "nutrientNumber": "205", "unitName": "G", "derivationCode": "LCCS", "derivationDescription": "Calculated from value per serving size measure", "value": 11.7}, {"nutrientId": 1008, "nutrientName": "Energy", "nutrientNumber": "208", "unitName": "KCAL", "derivationCode": "LCCS", "derivationDescription": "Calculated from value per serving size measure", "value": 44.0}, {"nutrientId": 2000, "nutrientName": "Sugars, total including NLEA", "nutrientNumber": "269", "unitName": "G", "derivationCode": "LCCS", "derivationDescription": "Calculated from value per serving size measure", "value": 11.7}, {"nutrientId": 1093, "nutrientName": "Sodium, Na", "nutrientNumber": "307", "unitName": "MG", "derivationCode": "LCCS", "derivationDescription": "Calculated from value per serving size measure", "value": 8.0}, {"nutrientId": 1235, "nutrientName": "Sugars, added", "nutrientNumber": "539", "unitName": "G", "derivationCode": "LCCS", "derivationDescription": "Calculated from value per serving size measure", "value": 11.7}]}, {"fdcId": 989165, "description": "WILD CHERRY COLA, WILD CHERRY", "lowercaseDescription": "wild cherry cola, wild cherry", "dataType": "Branded", "gtinUpc": "012000107948", "publishedDate": "2020-06-26", "brandOwner": "Pepsi-Cola North America Inc.", "ingredients": "CARBONATED WATER, HIGH FRUCTOSE CORN SYRUP, CARAMEL COLOR, SUGAR, PHOSPHORIC ACID, NATURAL FLAVOR, CAFFEINE, CITRIC ACID.", "allHighlightFields": "", "score": 72.70748, "foodNutrients": []}, {"fdcId": 991419, "description": "WILD CHERRY COLA, WILD CHERRY", "lowercaseDescription": "wild cherry cola, wild cherry", "dataType": "Branded", "gtinUpc": "012000111334", "publishedDate": "2020-06-26", "brandOwner": "Pepsi-Cola North America Inc.", "ingredients": "CARBONATED WATER, HIGH FRUCTOSE CORN SYRUP, CARAMEL COLOR, SUGAR, PHOSPHORIC ACID, NATURAL FLAVOR, CAFFEINE, CITRIC ACID.", "allHighlightFields": "", "score": 72.70748, "foodNutrients": []}, {"fdcId": 978033, "description": "WILD CHERRY COLA, WILD CHERRY", "lowercaseDescription": "wild cherry cola, wild cherry", "dataType": "Branded", "gtinUpc": "012000141133", "publishedDate": "2020-06-26", "brandOwner": "Pepsi-Cola North America Inc.", "ingredients": "CARBONATED WATER, HIGH FRUCTOSE CORN SYRUP, CARAMEL COLOR, SUGAR, PHOSPHORIC ACID, NATURAL FLAVOR, CAFFEINE, CITRIC ACID.", "allHighlightFields": "", "score": 72.70748, "foodNutrients": []}, {"fdcId": 979001, "description": "WILD CHERRY COLA, WILD CHERRY", "lowercaseDescription": "wild cherry cola, wild cherry", "dataType": "Branded", "gtinUpc": "012000111730", "publishedDate": "2020-06-26", "brandOwner": "Pepsi-Cola North America Inc.", "ingredients": "CARBONATED WATER, HIGH FRUCTOSE CORN SYRUP, CARAMEL COLOR, SUGAR, PHOSPHORIC ACID, NATURAL FLAVOR, CAFFEINE, CITRIC ACID.", "allHighlightFields": "", "score": 72.70748, "foodNutrients": []}, {"fdcId": 981631, "description": "WILD CHERRY COLA, WILD CHERRY", "lowercaseDescription": "wild cherry cola, wild cherry", "dataType": "Branded", "gtinUpc": "012000130427", "publishedDate": "2020-06-26", "brandOwner": "Pepsi-Cola North America Inc.", "ingredients": "CARBONATED WATER, HIGH FRUCTOSE CORN SYRUP, CARAMEL COLOR, SUGAR, PHOSPHORIC ACID, NATURAL FLAVOR, CAFFEINE, CITRIC ACID.", "allHighlightFields": "", "score": 72.70748, "foodNutrients": []}, {"fdcId": 986419, "description": "WILD CHERRY COLA, WILD CHERRY", "lowercaseDescription": "wild cherry cola, wild cherry", "dataType": "Branded", "gtinUpc": "012000811197", "publishedDate": "2020-06-26", "brandOwner": "Pepsi-Cola North America Inc.", "ingredients": "CARBONATED WATER, HIGH FRUCTOSE CORN SYRUP, CARAMEL COLOR, SUGAR, PHOSPHORIC ACID, NATURAL FLAVOR, CAFFEINE, CITRIC ACID.", "allHighlightFields": "", "score": 72.70748, "foodNutrients": []}, {"fdcId": 989081, "description": "WILD CHERRY COLA, WILD CHERRY", "lowercaseDescription": "wild cherry cola, wild cherry", "dataType": "Branded", "gtinUpc": "012000107986", "publishedDate": "2020-06-26", "brandOwner": "Pepsi-Cola North America Inc.", "ingredients": "CARBONATED WATER, HIGH FRUCTOSE CORN SYRUP, CARAMEL COLOR, SUGAR, PHOSPHORIC ACID, NATURAL FLAVOR, CAFFEINE, CITRIC ACID.", "allHighlightFields": "", "score": 72.70748, "foodNutrients": []}, {"fdcId": 991417, "description": "WILD CHERRY COLA, WILD CHERRY", "lowercaseDescription": "wild cherry cola, wild cherry", "dataType": "Branded", "gtinUpc": "012000101199", "publishedDate": "2020-06-26", "brandOwner": "Pepsi-Cola North America Inc.", "ingredients": "CARBONATED WATER, HIGH FRUCTOSE CORN SYRUP, CARAMEL COLOR, SUGAR, PHOSPHORIC ACID, NATURAL FLAVOR, CAFFEINE, CITRIC ACID.", "allHighlightFields": "", "score": 72.70748, "foodNutrients": []}, {"fdcId": 1131915, "description": "CLASSIC MILD CRAVE HUMMUS, CLASSIC, MILD CRAVE", "lowercaseDescription": "classic mild crave hummus, classic, mild crave", "dataType": "Branded", "gtinUpc": "854135008611", "publishedDate": "2020-11-13", "brandOwner": "Next Phase Enterprises", "ingredients": "CHICKPEAS (WATER, CHICKPEAS), WATER, TAHINI (SESAME SEEDS), SUNFLOWER OIL, SEA SALT, GARLIC PUREE, CITRIC ACID, CUMIN, WHITE VINEGAR, GUAR GUM.", "allHighlightFields": "", "score": 45.26734, "foodNutrients": [{"nutrientId": 1003, "nutrientName": "Protein", "nutrientNumber": "203", "unitName": "G", "derivationCode": "LCCS", "derivationDescription": "Calculated from value per serving size measure", "value": 7.14}, {"nutrientId": 1004, "nutrientName": "Total lipid (fat)", "nutrientNumber": "204", "unitName": "G", "derivationCode": "LCCS", "derivationDescription": "Calculated from value per serving size measure", "value": 10.7}, {"nutrientId": 1005, "nutrientName": "Carbohydrate, by difference", "nutrientNumber": "205", "unitName": "G", "derivationCode": "LCCS", "derivationDescription": "Calculated from value per serving size measure", "value": 17.9}, {"nutrientId": 1008, "nutrientName": "Energy", "nutrientNumber": "208", "unitName": "KCAL", "derivationCode": "LCCS", "derivationDescription": "Calculated from value per serving size measure", "value": 179}, {"nutrientId": 2000, "nutrientName": "Sugars, total including NLEA", "nutrientNumber": "269", "unitName": "G", "derivationCode": "LCSL", "derivationDescription": "Calculated from a less than value per serving size measure", "value": 3.57}, {"nutrientId": 1079, "nutrientName": "Fiber, total dietary", "nutrientNumber": "291", "unitName": "G", "derivationCode": "LCCS", "derivationDescription": "Calculated from value per serving size measure", "value": 3.6}, {"nutrientId": 1087, "nutrientName": "Calcium, Ca", "nutrientNumber": "301", "unitName": "MG", "derivationCode": "LCCD", "derivationDescription": "Calculated from a daily value percentage per serving size measure", "value": 0.0}, {"nutrientId": 1089, "nutrientName": "Iron, Fe", "nutrientNumber": "303", "unitName": "MG", "derivationCode": "LCCD", "derivationDescription": "Calculated from a daily value percentage per serving size measure", "value": 1.29}, {"nutrientId": 1093, "nutrientName": "Sodium, Na", "nutrientNumber": "307", "unitName": "MG", "derivationCode": "LCCS", "derivationDescription": "Calculated from value per serving size measure", "value": 446}, {"nutrientId": 1110, "nutrientName": "Vitamin D (D2 + D3), International Units", "nutrientNumber": "324", "unitName": "IU", "derivationCode": "LCCD", "derivationDescription": "Calculated from a daily value percentage per serving size measure", "value": 0.0}, {"nutrientId": 1253, "nutrientName": "Cholesterol", "nutrientNumber": "601", "unitName": "MG", "derivationCode": "LCCD", "derivationDescription": "Calculated from a daily value percentage per serving size measure", "value": 0.0}, {"nutrientId": 1257, "nutrientName": "Fatty acids, total trans", "nutrientNumber": "605", "unitName": "G", "derivationCode": "LCCS", "derivationDescription": "Calculated from value per serving size measure", "value": 0.0}, {"nutrientId": 1258, "nutrientName": "Fatty acids, total saturated", "nutrientNumber": "606", "unitName": "G", "derivationCode": "LCCD", "derivationDescription": "Calculated from a daily value percentage per serving size measure", "value": 0.0}]}, {"fdcId": 977945, "description": "WILD CHERRY DIET COLA, WILD CHERRY", "lowercaseDescription": "wild cherry diet cola, wild cherry", "dataType": "Branded", "gtinUpc": "012000130434", "publishedDate": "2020-06-26", "brandOwner": "Pepsi-Cola North America Inc.", "ingredients": "CARBONATED WATER,CARAMEL COLOR, NATURAL FLAVOR, PHOSPHORIC ACID, POTASSIUM CITRATE, SUCRALOSE, CITRIC ACID, ACESULFAME POTASSIUM, CAFFEINE POTASSIUM SORBATE (PRESERVES FRESHNESS), CALCIUM DISODIUM EDTA (TO PROTECT FLAVOR).", "allHighlightFields": "", "score": 37.696655, "foodNutrients": []}, {"fdcId": 662054, "description": "WILD CHERRY DIET COLA, WILD CHERRY", "lowercaseDescription": "wild cherry diet cola, wild cherry", "dataType": "Branded", "gtinUpc": "01234107", "publishedDate": "2019-12-06", "brandOwner": "Westguard Industries, Inc.", "ingredients": "CARBONATED WATER, CARAMEL COLOR, NATURAL FLAVOR, PHOSPHORIC ACID, POTASSIUM CITRATE, SUCRALOSE, CITRIC ACID, ACESULFAME POTASSIUM, CAFFEINE, POTASSIUM SORBATE (PRESERVES FRESHNESS), CALCIUM DISODIUM EDTA (TO PROTECT FLAVOR).", "allHighlightFields": "", "score": 37.696655, "foodNutrients": [{"nutrientId": 1003, "nutrientName": "Protein", "nutrientNumber": "203", "unitName": "G", "derivationCode": "LCCS", "derivationDescription": "Calculated from value per serving size measure", "value": 0.0}, {"nutrientId": 1004, "nutrientName": "Total lipid (fat)", "nutrientNumber": "204", "unitName": "G", "derivationCode": "LCCD", "derivationDescription": "Calculated from a daily value percentage per serving size measure", "value": 0.0}, {"nutrientId": 1005, "nutrientName": "Carbohydrate, by difference", "nutrientNumber": "205", "unitName": "G", "derivationCode": "LCCD", "derivationDescription": "Calculated from a daily value percentage per serving size measure", "value": 0.0}, {"nutrientId": 1008, "nutrientName": "Energy", "nutrientNumber": "208", "unitName": "KCAL", "derivationCode": "LCCS", "derivationDescription": "Calculated from value per serving size measure", "value": 0.0}, {"nutrientId": 2000, "nutrientName": "Sugars, total including NLEA", "nutrientNumber": "269", "unitName": "G", "derivationCode": "LCCS", "derivationDescription": "Calculated from value per serving size measure", "value": 0.0}, {"nutrientId": 1093, "nutrientName": "Sodium, Na", "nutrientNumber": "307", "unitName": "MG", "derivationCode": "LCCS", "derivationDescription": "Calculated from value per serving size measure", "value": 10.0}]}, {"fdcId": 978847, "description": "WILD CHERRY DIET COLA, WILD CHERRY", "lowercaseDescription": "wild cherry diet cola, wild cherry", "dataType": "Branded", "gtinUpc": "012000108525", "publishedDate": "2020-06-26", "brandOwner": "Pepsi-Cola North America Inc.", "ingredients": "CARBONATED WATER, CARAMEL COLOR, NATURAL FLAVOR, PHOSPHORIC ACID, POTASSIUM CITRATE, SUCRALOSE, CITRIC ACID, ACESULFAME POTASSIUM, CAFFEINE, POTASSIUM SORBATE (PRESERVES FRESHNESS), CALCIUM DISODIUM EDTA ( TO PROTECT FLAVOR).", "allHighlightFields": "", "score": 37.696655, "foodNutrients": []}, {"fdcId": 981937, "description": "WILD CHERRY DIET COLA, WILD CHERRY", "lowercaseDescription": "wild cherry diet cola, wild cherry", "dataType": "Branded", "gtinUpc": "012000012310", "publishedDate": "2020-06-26", "brandOwner": "Pepsi-Cola North America Inc.", "ingredients": "CARBONATED WATER, CARAMEL COLOR, NATURAL FLAVOR, PHOSPHORIC ACID, POTASSIUM CITRATE, SUCRALOSE, CITRIC ACID, ACESULFAME POTASSIUM, CAFFEINE, POTASSIUM SORBATE (PRESERVES FRESHNESS), CALCIUM DISODIUM EDTA (TO PROTECT FLAVOR).", "allHighlightFields": "", "score": 37.696655, "foodNutrients": []}, {"fdcId": 1014151, "description": "WILD CHERRY DIET COLA, WILD CHERRY", "lowercaseDescription": "wild cherry diet cola, wild cherry", "dataType": "Branded", "gtinUpc": "01252608", "publishedDate": "2020-06-26", "brandOwner": "Pepsi-Cola North America Inc.", "ingredients": "CARBONATED WATER, CARAMEL COLOR, NATURAL FLAVOR, PHOSPHORIC ACID, POTASSIUM CITRATE, SUCRALOSE, CITRIC ACID, ACESULFAME POTASSIUM, CAFFEINE, POTASSIUM SORBATE (PRESERVES FRESHNESS), CALCIUM DISODIUM EDTA (TO PROTECT FLAVOR)", "allHighlightFields": "", "score": 37.696655, "foodNutrients": []}], "aggregations": {"dataType": {"Branded": 12320, "SR Legacy": 130, "Survey (FNDDS)": 65, "Foundation": 2, "Experimental": 1}, "nutrients": {}}}