{"totalHits": 16647, "currentPage": 1, "totalPages": 666, "pageList": [1, 2, 3, 4, 5, 6, 7, 8, 9, 10], "foodSearchCriteria": {"query": "Lemonade Mixer Wild Cherry oz", "generalSearchInput": "Lemonade Mixer Wild Cherry oz", "pageNumber": 1, "sortBy": "dataType.keyword", "sortOrder": "asc", "numberOfResultsPerPage": 50, "pageSize": 25, "requireAllWords": false}, "foods": [{"fdcId": 964537, "description": "WILD CHERRY BITES, WILD CHERRY", "lowercaseDescription": "wild cherry bites, wild cherry", "dataType": "Branded", "gtinUpc": "075450084412", "publishedDate": "2020-06-26", "brandOwner": "Hy-Vee, Inc.", "ingredients": "CORN SYRUP, HIGH FRUCTOSE CORN SYRUP, ENRICHED WHEAT FLOUR (WHEAT, IRON, NIACIN, THIAMIN, RIBOFLAVIN, FOLIC ACID), MODIFIED FOOD STARCH (CORN), PALM OIL, SOY LECITHIN, GLYCERINE, SUGAR, SALT, SOY MONO- AND DIGLYCERIDES, ARTIFICIAL FLAVOR, CITRIC ACID, SODIUM CITRATE, POTASSIUM SORBATE (PRESERVATIVE), ARTIFICIAL COLOR (FD&C RED NO. 40).", "allHighlightFields": "", "score": 72.70748, "foodNutrients": [{"nutrientId": 1003, "nutrientName": "Protein", "nutrientNumber": "203", "unitName": "G", "derivationCode": "LCCS", "derivationDescription": "Calculated from value per serving size measure", "value": 3.33}, {"nutrientId": 1004, "nutrientName": "Total lipid (fat)", "nutrientNumber": "204", "unitName": "G", "derivationCode": "LCCS", "derivationDescription": "Calculated from value per serving size measure", "value": 3.33}, {"nutrientId": 1005, "nutrientName": "Carbohydrate, by difference", "nutrientNumber": "205", "unitName": "G", "derivationCode": "LCCS", "derivationDescription": "Calculated from value per serving size measure", "value": 73.3}, {"nutrientId": 1008, "nutrientName": "Energy", "nutrientNumber": "208", "unitName": "KCAL", "derivationCode": "LCCS", "derivationDescription": "Calculated from value per serving size measure", "value": 333}, {"nutrientId": 2000, "nutrientName": "Sugars, total including NLEA", "nutrientNumber": "269", "unitName": "G", "derivationCode": "LCCS", "derivationDescription": "Calculated from value per serving size measure", "value": 30.0}, {"nutrientId": 1079, "nutrientName": "Fiber, total dietary", "nutrientNumber": "291", "unitName": "G", "derivationCode": "LCCD", "derivationDescription": "Calculated from a daily value percentage per serving size measure", "value": 0.0}, {"nutrientId": 1087, "nutrientName": "Calcium, Ca", "nutrientNumber": "301", "unitName": "MG", "derivationCode": "LCCS", "derivationDescription": "Calculated from value per serving size measure", "value": 3.0}, {"nutrientId": 1089, "nutrientName": "Iron, Fe", "nutrientNumber": "303", "unitName": "MG", "derivationCode": "LCCD", "derivationDescription": "Calculated from a daily value percentage per serving size measure", "value": 0.0}, {"nutrientId": 1092, "nutrientName": "Potassium, K", "nutrientNumber": "306", "unitName": "MG", "derivationCode": "LCCD", "derivationDescription": "Calculated from a daily value percentage per serving size measure", "value": 0.0}, {"nutrientId": 1093, "nutrientName": "Sodium, Na", "nutrientNumber": "307", "unitName": "MG", "derivationCode": "LCCS", "derivationDescription": "Calculated from value per serving size measure", "value": 333}, {"nutrientId": 1110, "nutrientName": "Vitamin D (D2 + D3), International Units", "nutrientNumber": "324", "unitName": "IU", "derivationCode": "LCCD", "derivationDescription": "Calculated from a daily value percentage per serving size measure", "value": 0.0}, {"nutrientId": 1235, "nutrientName": "Sugars, added", "nutrientNumber": "539", "unitName": "G", "derivationCode": "LCCS", "derivationDescription": "Calculated from value per serving size measure", "value": 30.0}, {"nutrientId": 1253, "nutrientName": "Cholesterol", "nutrientNumber": "601", "unitName": "MG", "derivationCode": "LCCD", "derivationDescription": "Calculated from a daily value percentage per serving size measure", "value": 0.0}, {"nutrientId": 1257, "nutrientName": "Fatty acids, total trans", "nutrientNumber": "605", "unitName": "G", "derivationCode": "LCCS", "derivationDescription": "Calculated from value per serving size measure", "value": 0.0}, {"nutrientId": 1258, "nutrientName": "Fatty acids, total saturated", "nutrientNumber": "606", "unitName": "G", "derivationCode": "LCCS", "derivationDescription": "Calculated from value per serving size measure", "value": 1.67}]}, {"fdcId": 711502, "description": "WILD CHERRY COLA, WILD CHERRY", "lowercaseDescription": "wild cherry cola, wild cherry", "dataType": "Branded", "gtinUpc": "01299007", "publishedDate": "2019-12-06", "brandOwner": "PEPSICO, INC", "ingredients": "CARBONATED WATER, HIGH FRUCTOSE CORN SYRUP, CARAMEL COLOR, SUGAR, PHOSPHORIC ACID, NATURAL FLAVOR, CAFFEINE, CITRIC ACID.", "allHighlightFields": "", "score": 72.70748, "foodNutrients": [{"nutrientId": 1003, "nutrientName": "Protein", "nutrientNumber": "203", "unitName": "G", "derivationCode": "LCCS", "derivationDescription": "Calculated from value per serving size measure", "value": 0.0}, {"nutrientId": 1004, "nutrientName": "Total lipid (fat)", "nutrientNumber": "204", "unitName": "G", "derivationCode": "LCCD", "derivationDescription": "Calculated from a daily value percentage per serving size measure", "value": 0.0}, {"nutrientId": 1005, "nutrientName": "Carbohydrate, by difference", "nutrientNumber": "205", "unitName": "G", "derivationCode": "LCCS", "derivationDescription": "Calculated from value per serving size measure", "value": 11.7}, {"nutrientId": 1008, "nutrientName": "Energy", "nutrientNumber": "208", "unitName": "KCAL", "derivationCode": "LCCS", "derivationDescription": "Calculated from value per serving size measure", "value": 44.0}, {"nutrientId": 2000, "nutrientName": "Sugars, total including NLEA", "nutrientNumber": "269", "unitName": "G", "derivationCode": "LCCS", "derivationDescription": "Calculated from value per serving size measure", "value": 11.7}, {"nutrientId": 1093, "nutrientName": "Sodium, Na", "nutrientNumber": "307", "unitName": "MG", "derivationCode": "LCCS", "derivationDescription": "Calculated from value per serving size measure", "value": 8.0}, {"nutrientId": 1235, "nutrientName": "Sugars, added", "nutrientNumber": "539", "unitName": "G", "derivationCode": "LCCS", "derivationDescription": "Calculated from value per serving size measure", "value": 11.7}]}, {"fdcId": 977913, "description": "WILD CHERRY COLA, WILD CHERRY", "lowercaseDescription": "wild cherry cola, wild cherry", "dataType": "Branded", "gtinUpc": "012000692932", "publishedDate": "2020-06-26", "brandOwner": "Pepsi-Cola North America Inc.", "ingredients": "CARBONATED WATER, HIGH FRUCTOSE CORN SYRUP, CARAMEL COLOR, SUGAR, PHOSPHORIC ACID, NATURAL FLAVOR, CAFFEINE, CITRIC ACID.", "allHighlightFields": "", "score": 72.70748, "foodNutrients": []}, {"fdcId": 989061, "description": "WILD CHERRY COLA, WILD CHERRY", "lowercaseDescription": "wild cherry cola, wild cherry", "dataType": "Branded", "gtinUpc": "012000014901", "publishedDate": "2020-06-26", "brandOwner": "Pepsi-Cola North America Inc.", "ingredients": "CARBONATED WATER, HIGH FRUCTOSE CORN SYRUP, CARAMEL COLOR, SUGAR, PHOSPHORIC ACID, NATURAL FLAVOR, CAFFEINE, CITRIC ACID.", "allHighlightFields": "", "score": 72.70748, "foodNutrients": []}, {"fdcId": 1053687, "description": "WILD CHERRY COLA, WILD CHERRY", "lowercaseDescription": "wild cherry cola, wild cherry", "dataType": "Branded", "gtinUpc": "012000105401", "publishedDate": "2020-06-26", "brandOwner": "Pepsi-Cola North America Inc.", "ingredients": "CARBONATED WATER, HIGH FRUCTOSE CORN SYRUP, CARAMEL COLOR, SUGAR, PHOSPHORIC ACID, NATURAL FLAVOR, CAFFEINE, CITRIC ACID.", "allHighlightFields": "", "score": 72.70748, "foodNutrients": []}, {"fdcId": 989079, "description": "WILD CHERRY COLA, WILD CHERRY", "lowercaseDescription": "wild cherry cola, wild cherry", "dataType": "Branded", "gtinUpc": "012000809996", "publishedDate": "2020-06-26", "brandOwner": "Pepsi-Cola North America Inc.", "ingredients": "CARBONATED WATER, HIGH FRUCTOSE CORN SYRUP, CARAMEL COLOR, SUGAR, PHOSPHORIC ACID, NATURAL FLAVOR, CAFFEINE, CITRIC ACID.", "allHighlightFields": "", "score": 72.70748, "foodNutrients": []}, {"fdcId": 991479, "description": "WILD CHERRY COLA, WILD CHERRY", "lowercaseDescription": "wild cherry cola, wild cherry", "dataType": "Branded", "gtinUpc": "012000502972", "publishedDate": "2020-06-26", "brandOwner": "Pepsi-Cola North America Inc.", "ingredients": "CARBONATED WATER, HIGH FRUCTOSE CORN SYRUP, CARAMEL COLOR, SUGAR, PHOSPHORIC ACID, NATURAL FLAVOR, CAFFEINE, CITRIC ACID.", "allHighlightFields": "", "score": 72.70748, "foodNutrients": []}, {"fdcId": 1053915, "description": "WILD CHERRY COLA, WILD CHERRY", "lowercaseDescription": "wild cherry cola, wild cherry", "dataType": "Branded", "gtinUpc": "012000111341", "publishedDate": "2020-06-26", "brandOwner": "Pepsi-Cola North America Inc.", "ingredients": "CARBONATED WATER, HIGH FRUCTOSE CORN SYRUP, CARAMEL COLOR, SUGAR, PHOSPHORIC ACID, NATURAL FLAVOR, CAFFEINE, CITRIC ACID.", "allHighlightFields": "", "score": 72.70748, "foodNutrients": []}, {"fdcId": 654624, "description": "WILD CHERRY COLA, WILD CHERRY", "lowercaseDescription": "wild cherry cola, wild cherry", "dataType": "Branded", "gtinUpc": "01231100", "publishedDate": "2019-12-06", "brandOwner": "Golden Acre Farms Inc.", "ingredients": "CARBONATED WATER, HIGH FRUCTOSE CORN SYRUP, CARAMEL COLOR, SUGAR, PHOSPHORIC ACID, NATURAL FLAVOR, CAFFEINE, CITRIC ACID.", "allHighlightFields": "", "score": 72.70748, "foodNutrients": [{"nutrientId": 1003, "nutrientName": "Protein", "nutrientNumber": "203", "unitName": "G", "derivationCode": "LCCS", "derivationDescription": "Calculated from value per serving size measure", "value": 0.0}, {"nutrientId": 1004, "nutrientName": "Total lipid (fat)", "nutrientNumber": "204", "unitName": "G", "derivationCode": "LCCD", "derivationDescription": "Calculated from a daily value percentage per serving size measure", "value": 0.0}, {"nutrientId": 1005, "nutrientName": "Carbohydrate, by difference", "nutrientNumber": "205", "unitName": "G", "derivationCode": "LCCS", "derivationDescription": "Calculated from value per serving size measure", "value": 11.7}, {"nutrientId": 1008, "nutrientName": "Energy", "nutrientNumber": "208", "unitName": "KCAL", "derivationCode": "LCCS", "derivationDescription": "Calculated from value per serving size measure", "value": 44.0}, {"nutrientId": 2000, "nutrientName": "Sugars, total including NLEA", "nutrientNumber": "269", "unitName": "G", "derivationCode": "LCCS", "derivationDescription": "Calculated from value per serving size measure", "value": 11.7}, {"nutrientId": 1093, "nutrientName": "Sodium, Na", "nutrientNumber": "307", "unitName": "MG", "derivationCode": "LCCS", "derivationDescription": "Calculated from value per serving size measure", "value": 8.0}, {"nutrientId": 1235, "nutrientName": "Sugars, added", "nutrientNumber": "539", "unitName": "G", "derivationCode": "LCCS", "derivationDescription": "Calculated from value per serving size measure", "value": 11.7}]}, {"fdcId": 989165, "description": "WILD CHERRY COLA, WILD CHERRY", "lowercaseDescription": "wild cherry cola, wild cherry", "dataType": "Branded", "gtinUpc": "012000107948", "publishedDate": "2020-06-26", "brandOwner": "Pepsi-Cola North America Inc.", "ingredients": "CARBONATED WATER, HIGH FRUCTOSE CORN SYRUP, CARAMEL COLOR, SUGAR, PHOSPHORIC ACID, NATURAL FLAVOR, CAFFEINE, CITRIC ACID.", "allHighlightFields": "", "score": 72.70748, "foodNutrients": []}, {"fdcId": 991419, "description": "WILD CHERRY COLA, WILD CHERRY", "lowercaseDescription": "wild cherry cola, wild cherry", "dataType": "Branded", "gtinUpc": "012000111334", "publishedDate": "2020-06-26", "brandOwner": "Pepsi-Cola North America Inc.", "ingredients": "CARBONATED WATER, HIGH FRUCTOSE CORN SYRUP, CARAMEL COLOR, SUGAR, PHOSPHORIC ACID, NATURAL FLAVOR, CAFFEINE, CITRIC ACID.", "allHighlightFields": "", "score": 72.70748, "foodNutrients": []}, {"fdcId": 978033, "description": "WILD CHERRY COLA, WILD CHERRY", "lowercaseDescription": "wild cherry cola, wild cherry", "dataType": "Branded", "gtinUpc": "012000141133", "publishedDate": "2020-06-26", "brandOwner": "Pepsi-Cola North America Inc.", "ingredients": "CARBONATED WATER, HIGH FRUCTOSE CORN SYRUP, CARAMEL COLOR, SUGAR, PHOSPHORIC ACID, NATURAL FLAVOR, CAFFEINE, CITRIC ACID.", "allHighlightFields": "", "score": 72.70748, "foodNutrients": []}, {"fdcId": 979001, "description": "WILD CHERRY COLA, WILD CHERRY", "lowercaseDescription": "wild cherry cola, wild cherry", "dataType": "Branded", "gtinUpc": "012000111730", "publishedDate": "2020-06-26", "brandOwner": "Pepsi-Cola North America Inc.", "ingredients": "CARBONATED WATER, HIGH FRUCTOSE CORN SYRUP, CARAMEL COLOR, SUGAR, PHOSPHORIC ACID, NATURAL FLAVOR, CAFFEINE, CITRIC ACID.", "allHighlightFields": "", "score": 72.70748, "foodNutrients": []}, {"fdcId": 981631, "description": "WILD CHERRY COLA, WILD CHERRY", "lowercaseDescription": "wild cherry cola, wild cherry", "dataType": "Branded", "gtinUpc": "012000130427", "publishedDate": "2020-06-26", "brandOwner": "Pepsi-Cola North America Inc.", "ingredients": "CARBONATED WATER, HIGH FRUCTOSE CORN SYRUP, CARAMEL COLOR, SUGAR, PHOSPHORIC ACID, NATURAL FLAVOR, CAFFEINE, CITRIC ACID.", "allHighlightFields": "", "score": 72.70748, "foodNutrients": []}, {"fdcId": 986419, "description": "WILD CHERRY COLA, WILD CHERRY", "lowercaseDescription": "wild cherry cola, wild cherry", "dataType": "Branded", "gtinUpc": "012000811197", "publishedDate": "2020-06-26", "brandOwner": "Pepsi-Cola North America Inc.", "ingredients": "CARBONATED WATER, HIGH FRUCTOSE CORN SYRUP, CARAMEL COLOR, SUGAR, PHOSPHORIC ACID, NATURAL FLAVOR, CAFFEINE, CITRIC ACID.", "allHighlightFields": "", "score": 72.70748, "foodNutrients": []}, {"fdcId": 989081, "description": "WILD CHERRY COLA, WILD CHERRY", "lowercaseDescription": "wild cherry cola, wild cherry", "dataType": "Branded", "gtinUpc": "012000107986", "publishedDate": "2020-06-26", "brandOwner": "Pepsi-Cola North America Inc.", "ingredients": "CARBONATED WATER, HIGH FRUCTOSE CORN SYRUP, CARAMEL COLOR, SUGAR, PHOSPHORIC ACID, NATURAL FLAVOR, CAFFEINE, CITRIC ACID.", "allHighlightFields": "", "score": 72.70748, "foodNutrients": []}, {"fdcId": 991417, "description": "WILD CHERRY COLA, WILD CHERRY", "lowercaseDescription": "wild cherry cola, wild cherry", "dataType": "Branded", "gtinUpc": "012000101199", "publishedDate": "2020-06-26", "brandOwner": "Pepsi-Cola North America Inc.", "ingredients": "CARBONATED WATER, HIGH FRUCTOSE CORN SYRUP, CARAMEL COLOR, SUGAR, PHOSPHORIC ACID, NATURAL FLAVOR, CAFFEINE, CITRIC ACID.", "allHighlightFields": "", "score": 72.70748, "foodNutrients": []}, {"fdcId": 977143, "description": "CHERRY LEMONADE FLAVORED DRINK, CHERRY LEMONADE", "lowercaseDescription": "cherry lemonade flavored drink, cherry lemonade", "dataType": "Branded", "gtinUpc": "043000069981", "publishedDate": "2020-06-26", "brandOwner": "Kraft Heinz Foods Company", "ingredients": "WATER, SUGAR, CONTAINS LESS THAN 2% OF CITRIC ACID, POTASSIUM CITRATE, POTASSIUM SORBATE, SODIUM PHOSPHATE, NATURAL FLAVOR, ASCORBIC ACID (VITAMIN C), RED 40, CALCIUM DISODIUM EDTA (PRESERVE FLAVOR).", "allHighlightFields": "", "score": 47.751663, "foodNutrients": []}, {"fdcId": 993565, "description": "CHERRY LEMONADE GELATIN DESSERT, CHERRY LEMONADE", "lowercaseDescription": "cherry lemonade gelatin dessert, cherry lemonade", "dataType": "Branded", "gtinUpc": "043000048184", "publishedDate": "2020-06-26", "brandOwner": "Kraft Heinz Foods Company", "ingredients": "SUGAR, GELATIN, ADIPIC ACID (FOR TARTNESS), CONTAINS LESS THAN 2% OF NATURAL AND ARTIFICIAL FLAVOR, DISODIUM PHOSPHATE AND SODIUM CITRATE (CONTROL ACIDITY), FUMARIC ACID (FOR TARTNESS), RED 40, BLUE 1.", "allHighlightFields": "", "score": 47.751663, "foodNutrients": []}, {"fdcId": 977945, "description": "WILD CHERRY DIET COLA, WILD CHERRY", "lowercaseDescription": "wild cherry diet cola, wild cherry", "dataType": "Branded", "gtinUpc": "012000130434", "publishedDate": "2020-06-26", "brandOwner": "Pepsi-Cola North America Inc.", "ingredients": "CARBONATED WATER,CARAMEL COLOR, NATURAL FLAVOR, PHOSPHORIC ACID, POTASSIUM CITRATE, SUCRALOSE, CITRIC ACID, ACESULFAME POTASSIUM, CAFFEINE POTASSIUM SORBATE (PRESERVES FRESHNESS), CALCIUM DISODIUM EDTA (TO PROTECT FLAVOR).", "allHighlightFields": "", "score": 37.696655, "foodNutrients": []}, {"fdcId": 662054, "description": "WILD CHERRY DIET COLA, WILD CHERRY", "lowercaseDescription": "wild cherry diet cola, wild cherry", "dataType": "Branded", "gtinUpc": "01234107", "publishedDate": "2019-12-06", "brandOwner": "Westguard Industries, Inc.", "ingredients": "CARBONATED WATER, CARAMEL COLOR, NATURAL FLAVOR, PHOSPHORIC ACID, POTASSIUM CITRATE, SUCRALOSE, CITRIC ACID, ACESULFAME POTASSIUM, CAFFEINE, POTASSIUM SORBATE (PRESERVES FRESHNESS), CALCIUM DISODIUM EDTA (TO PROTECT FLAVOR).", "allHighlightFields": "", "score": 37.696655, "foodNutrients": [{"nutrientId": 1003, "nutrientName": "Protein", "nutrientNumber": "203", "unitName": "G", "derivationCode": "LCCS", "derivationDescription": "Calculated from value per serving size measure", "value": 0.0}, {"nutrientId": 1004, "nutrientName": "Total lipid (fat)", "nutrientNumber": "204", "unitName": "G", "derivationCode": "LCCD", "derivationDescription": "Calculated from a daily value percentage per serving size measure", "value": 0.0}, {"nutrientId": 1005, "nutrientName": "Carbohydrate, by difference", "nutrientNumber": "205", "unitName": "G", "derivationCode": "LCCD", "derivationDescription": "Calculated from a daily value percentage per serving size measure", "value": 0.0}, {"nutrientId": 1008, "nutrientName": "Energy", "nutrientNumber": "208", "unitName": "KCAL", "derivationCode": "LCCS", "derivationDescription": "Calculated from value per serving size measure", "value": 0.0}, {"nutrientId": 2000, "nutrientName": "Sugars, total including NLEA", "nutrientNumber": "269", "unitName": "G", "derivationCode": "LCCS", "derivationDescription": "Calculated from value per serving size measure", "value": 0.0}, {"nutrientId": 1093, "nutrientName": "Sodium, Na", "nutrientNumber": "307", "unitName": "MG", "derivationCode": "LCCS", "derivationDescription": "Calculated from value per serving size measure", "value": 10.0}]}, {"fdcId": 978847, "description": "WILD CHERRY DIET COLA, WILD CHERRY", "lowercaseDescription": "wild cherry diet cola, wild cherry", "dataType": "Branded", "gtinUpc": "012000108525", "publishedDate": "2020-06-26", "brandOwner": "Pepsi-Cola North America Inc.", "ingredients": "CARBONATED WATER, CARAMEL COLOR, NATURAL FLAVOR, PHOSPHORIC ACID, POTASSIUM CITRATE, SUCRALOSE, CITRIC ACID, ACESULFAME POTASSIUM, CAFFEINE, POTASSIUM SORBATE (PRESERVES FRESHNESS), CALCIUM DISODIUM EDTA ( TO PROTECT FLAVOR).", "allHighlightFields": "", "score": 37.696655, "foodNutrients": []}, {"fdcId": 981937, "description": "WILD CHERRY DIET COLA, WILD CHERRY", "lowercaseDescription": "wild cherry diet cola, wild cherry", "dataType": "Branded", "gtinUpc": "012000012310", "publishedDate": "2020-06-26", "brandOwner": "Pepsi-Cola North America Inc.", "ingredients": "CARBONATED WATER, CARAMEL COLOR, NATURAL FLAVOR, PHOSPHORIC ACID, POTASSIUM CITRATE, SUCRALOSE, CITRIC ACID, ACESULFAME POTASSIUM, CAFFEINE, POTASSIUM SORBATE (PRESERVES FRESHNESS), CALCIUM DISODIUM EDTA (TO PROTECT FLAVOR).", "allHighlightFields": "", "score": 37.696655, "foodNutrients": []}, {"fdcId": 1014151, "description": "WILD CHERRY DIET COLA, WILD CHERRY", "lowercaseDescription": "wild cherry diet cola, wild cherry", "dataType": "Branded", "gtinUpc": "01252608", "publishedDate": "2020-06-26", "brandOwner": "Pepsi-Cola North America Inc.", "ingredients": "CARBONATED WATER, CARAMEL COLOR, NATURAL FLAVOR, PHOSPHORIC ACID, POTASSIUM CITRATE, SUCRALOSE, CITRIC ACID, ACESULFAME POTASSIUM, CAFFEINE, POTASSIUM SORBATE (PRESERVES FRESHNESS), CALCIUM DISODIUM EDTA (TO PROTECT FLAVOR)", "allHighlightFields": "", "score": 37.696655, "foodNutrients": []}, {"fdcId": 1014153, "description": "WILD CHERRY DIET COLA, WILD CHERRY", "lowercaseDescription": "wild cherry diet cola, wild cherry", "dataType": "Branded", "gtinUpc": "01257904", "publishedDate": "2020-06-26", "brandOwner": "Pepsi-Cola North America Inc.", "ingredients": "CARBONATED WATER, CARAMEL COLOR, NATURAL FLAVOR, PHOSPHORIC ACID, POTASSIUM CITRATE, SUCRALOSE, CITRIC ACID, ACESULFAME POTASSIUM, CAFFEINE, POTASSIUM SORBATE (PRESERVES FRESHNESS), CALCIUM DISODIUM EDTA (TO PROTECT FLAVOR)", "allHighlightFields": "", "score": 37.696655, "foodNutrients": []}], "aggregations": {"dataType": {"Branded": 16475, "SR Legacy": 104, "Survey (FNDDS)": 67, "Experimental": 1}, "nutrients": {}}}