{"totalHits": 30852, "currentPage": 1, "totalPages": 1235, "pageList": [1, 2, 3, 4, 5, 6, 7, 8, 9, 10], "foodSearchCriteria": {"query": "Mist TWST Lemon Lime Small", "generalSearchInput": "Mist TWST Lemon Lime Small", "pageNumber": 1, "sortBy": "dataType.keyword", "sortOrder": "asc", "numberOfResultsPerPage": 50, "pageSize": 25, "requireAllWords": false}, "foods": [{"fdcId": 978265, "description": "MIST TWST, SPARKLING FLAVORED SODA, LEMON LIME, LEMON LIME", "lowercaseDescription": "mist twst, sparkling flavored soda, lemon lime, lemon lime", "dataType": "Branded", "gtinUpc": "012000150395", "publishedDate": "2020-06-26", "brandOwner": "Pepsi-Cola North America Inc.", "ingredients": "CARBONATED WATER, HIGH FRUCTOSE CORN SYRUP, LEMON JUICE CONCENTRATE, NATURAL FLAVOR, CITRIC ACID, POTASSIUM SORBATE AND POTASSIUM BENZOATE (PRESERVE FRESHNESS), CALCIUM DISODIUM EDTA (TO PROTECT FLAVOR)", "allHighlightFields": "<b>Ingredients</b>: CARBONATED WATER, HIGH FRUCTOSE CORN SYRUP, <em>LEMON</em> JUICE CONCENTRATE, NATURAL FLAVOR, CITRIC ACID", "score": 688.75397, "foodNutrients": []}, {"fdcId": 503201, "description": "MIST TWST, SPARKLING FLAVORED SODA, LEMON LIME", "lowercaseDescription": "mist twst, sparkling flavored soda, lemon lime", "dataType": "Branded", "gtinUpc": "012000151781", "publishedDate": "2019-04-01", "brandOwner": "MIST TWST", "ingredients": "CARBONATED WATER, HIGH FRUCTOSE CORN SYRUP, LEMON JUICE CONCENTRATE, NATURAL FLAVOR, CITRIC ACID, POTASSIUM SORBATE AND POTASSIUM BENZOATE (PRESERVE FRESHNESS), CALCIUM DISODIUM EDTA (TO PROTECT FLAVOR)", "allHighlightFields": "<b>Brand Owner</b>: <em>MIST</em> <em>TWST</em><br/><b>Ingredients</b>: CARBONATED WATER, HIGH FRUCTOSE CORN SYRUP, <em>LEMON</em> JUICE CONCENTRATE, NATURAL FLAVOR, CITRIC ACID", "score": 666.9631, "foodNutrients": [{"nutrientId": 1004, "nutrientName": "Total lipid (fat)", "nutrientNumber": "204", "unitName": "G", "derivationCode": "LCCD", "derivationDescription": "Calculated from a daily value percentage per serving size measure", "value": 0.0}, {"nutrientId": 1003, "nutrientName": "Protein", "nutrientNumber": "203", "unitName": "G", "derivationCode": "LCCS", "derivationDescription": "Calculated from value per serving size measure", "value": 0.0}, {"nutrientId": 1005, "nutrientName": "Carbohydrate, by difference", "nutrientNumber": "205", "unitName": "G", "derivationCode": "LCCS", "derivationDescription": "Calculated from value per serving size measure", "value": 10.8}, {"nutrientId": 1008, "nutrientName": "Energy", "nutrientNumber": "208", "unitName": "KCAL", "derivationCode": "LCCS", "derivationDescription": "Calculated from value per serving size measure", "value": 40.0}, {"nutrientId": 2000, "nutrientName": "Sugars, total including NLEA", "nutrientNumber": "269", "unitName": "G", "derivationCode": "LCCS", "derivationDescription": "Calculated from value per serving size measure", "value": 10.8}, {"nutrientId": 1093, "nutrientName": "Sodium, Na", "nutrientNumber": "307", "unitName": "MG", "derivationCode": "LCCS", "derivationDescription": "Calculated from value per serving size measure", "value": 9.0}]}, {"fdcId": 978483, "description": "DIET MIST TWST, DIET SPARKLING FLAVORED SODA, LEMON LIME, LEMON LIME", "lowercaseDescription": "diet mist twst, diet sparkling flavored soda, lemon lime, lemon lime", "dataType": "Branded", "gtinUpc": "012000151644", "publishedDate": "2020-06-26", "brandOwner": "Pepsi-Cola North America Inc.", "ingredients": "CARBONATED WATER, CITRIC ACID, NATURAL FLAVOR, POTASSIUM CITRATE, ASPARTAME, POTASSIUM BENZOATE (PRESERVES FRESHNESS), ACESULFAME POTASSIUM, ASCORBIC ACID (TO PROTECT FLAVOR), CALCIUM DISODIUM EDTA (TO PROTECT FLAVOR).", "allHighlightFields": "", "score": 562.8953, "foodNutrients": []}, {"fdcId": 977951, "description": "DIET MIST TWST, SPARKLING FLAVORED SODA, LEMON LIME FLAVOR, LEMON LIME", "lowercaseDescription": "diet mist twst, sparkling flavored soda, lemon lime flavor, lemon lime", "dataType": "Branded", "gtinUpc": "012000151620", "publishedDate": "2020-06-26", "brandOwner": "Pepsi-Cola North America Inc.", "ingredients": "CARBONATED WATER, CITRIC ACID, NATURAL FLAVOR, POTASSIUM CITRATE, ASPARTAME, POTASSIUM BENZOATE (PRESERVES FRESHNESS), ACESULFAME POTASSIUM, ASCORBIC ACID (TO PROTECT FLAVOR), CALCIUM DISODIUM EDTA (TO PROTECT FLAVOR).", "allHighlightFields": "", "score": 562.8953, "foodNutrients": []}, {"fdcId": 977949, "description": "MIST TWST, SPARKLING FLAVORED SODA, CHERRY LEMON LIME, CHERRY LEMON LIME", "lowercaseDescription": "mist twst, sparkling flavored soda, cherry lemon lime, cherry lemon lime", "dataType": "Branded", "gtinUpc": "012000150234", "publishedDate": "2020-06-26", "brandOwner": "Pepsi-Cola North America Inc.", "ingredients": "CARBONATED WATER, HIGH FRUCTOSE CORN SYRUP, NATURAL FLAVOR, CITRIC ACID, LEMON JUICE CONCENTRATE, POTASSIUM SORBATE AND POTASSIUM BENZOATE (PRESERVES FRESHNESS), POTASSIUM CITRATE, TARTARIC ACID, ACESULFAME POTASSIUM, CALCIUM DISODIUM EDTA (TO PROTECT FLAVOR), SUCRALOSE, RED 40, BLUE 1.", "allHighlightFields": "<b>Ingredients</b>: CARBONATED WATER, HIGH FRUCTOSE CORN SYRUP, NATURAL FLAVOR, CITRIC ACID, <em>LEMON</em> JUICE CONCENTRATE", "score": 562.8953, "foodNutrients": []}, {"fdcId": 979757, "description": "MIST TWST, SPARKLING FLAVORED SODA, CHERRY LEMON LIME, CHERRY LEMON LIME", "lowercaseDescription": "mist twst, sparkling flavored soda, cherry lemon lime, cherry lemon lime", "dataType": "Branded", "gtinUpc": "012000150111", "publishedDate": "2020-06-26", "brandOwner": "Pepsi-Cola North America Inc.", "ingredients": "CARBONATED WATER, HIGH FRUCTOSE CORN SYRUP, LEMON JUICE CONCENTRATE, NATURAL FLAVOR, CITRIC ACID, POTASSIUM SORBATE AND POTASSIUM BENZOATE (PRESERVE FRESHNESS), POTASSIUM CITRATE, TARTARIC ACID, ACESULFAME POTASSIUM, CALCIUM DISODIUM EDTA (TO PROTECT FLAVOR), SUCRALOSE, RED 40, BLUE 1.", "allHighlightFields": "<b>Ingredients</b>: CARBONATED WATER, HIGH FRUCTOSE CORN SYRUP, <em>LEMON</em> JUICE CONCENTRATE, NATURAL FLAVOR, CITRIC ACID", "score": 562.8953, "foodNutrients": []}, {"fdcId": 1001349, "description": "MIST TWST, SPARKLING FLAVORED SODA, CHERRY LEMON LIME, CHERRY LEMON LIME", "lowercaseDescription": "mist twst, sparkling flavored soda, cherry lemon lime, cherry lemon lime", "dataType": "Branded", "gtinUpc": "012000150074", "publishedDate": "2020-06-26", "brandOwner": "Pepsi-Cola North America Inc.", "ingredients": "CARBONATED WATER, HIGH FRUCTOSE CORN SYRUP, NATURAL FLAVORS, CITRIC ACID, LEMON JUICE CONCENTRATE, POTASSIUM SORBATE AND POTASSIUM BENZOATE (PRESERVE FRESHNESS), POTASSIUM CITRATE, TARTARIC ACID, ACESULFAME POTASSIUM, CALCIUM DISODIUM EDTA (TO PROTECT FLAVOR), SUCRALOSE, RED 40, BLUE 1.", "allHighlightFields": "<b>Ingredients</b>: CARBONATED WATER, HIGH FRUCTOSE CORN SYRUP, NATURAL FLAVORS, CITRIC ACID, <em>LEMON</em> JUICE CONCENTRATE", "score": 562.8953, "foodNutrients": []}, {"fdcId": 991455, "description": "SIERRA MIST, LEMON LIME SODA, LEMON LIME, LEMON LIME", "lowercaseDescription": "sierra mist, lemon lime soda, lemon lime, lemon lime", "dataType": "Branded", "gtinUpc": "012000282690", "publishedDate": "2020-06-26", "brandOwner": "Pepsi-Cola North America Inc.", "ingredients": "CARBONATED WATER, HIGH FRUCTOSE CORN SYRUP, CITRIC ACID, NATURAL FLAVOR, POTASSIUM BENZOATE (PRESERVES FRESHNESS), POTASSIUM CITRATE, ASCORBIC ACID AND CALCIUM DISODIUM EDTA (TO PROTECT FLAVOR).", "allHighlightFields": "", "score": 374.36127, "foodNutrients": []}, {"fdcId": 991283, "description": "SIERRA MIST, LEMON-LIME SODA, LEMON-LIME, LEMON-LIME", "lowercaseDescription": "sierra mist, lemon-lime soda, lemon-lime, lemon-lime", "dataType": "Branded", "gtinUpc": "012000001550", "publishedDate": "2020-06-26", "brandOwner": "Pepsi-Cola North America Inc.", "ingredients": "CARBONATED WATER, CITRIC ACID, NATURAL FLAVOR, POTASSIUM CITRATE, ASPARTAME, POTASSIUM BENZOATE (PRESERVES FRESHNESS), ACESULFAME POTASSIUM, ASCORBIC ACID AND CALCIUM DISODIUM EDTA (TO PROTECT FLAVOR).", "allHighlightFields": "", "score": 374.36127, "foodNutrients": []}, {"fdcId": 989059, "description": "SIERRA MIST, LEMON-LIME SODA, LEMON-LIME, LEMON-LIME", "lowercaseDescription": "sierra mist, lemon-lime soda, lemon-lime, lemon-lime", "dataType": "Branded", "gtinUpc": "012000692543", "publishedDate": "2020-06-26", "brandOwner": "Pepsi-Cola North America Inc.", "ingredients": "CARBONATED WATER, SUGAR, CITRIC ACID, NATURAL FLAVOR, POTASSIUM CITRATE, POTASSIUM SORBATE (PRESERVES FRESHNESS), PURIFIED STEVIA LEAF EXTRACT.", "allHighlightFields": "", "score": 374.36127, "foodNutrients": []}, {"fdcId": 991425, "description": "DIET SIERRA MIST, LEMON-LIME SODA, LEMON-LIME, LEMON-LIME", "lowercaseDescription": "diet sierra mist, lemon-lime soda, lemon-lime, lemon-lime", "dataType": "Branded", "gtinUpc": "012000112263", "publishedDate": "2020-06-26", "brandOwner": "Pepsi-Cola North America Inc.", "ingredients": "CARBONATED WATER, CITRIC ACID, NATURAL FLAVOR, POTASSIUM CITRATE, ASPARTAME, POTASSIUM BENZOATE (PRESERVES FRESHNESS), ACESULFAME POTASSIUM, ASCORBIC ACID (TO PROTECT FLAVOR), CALCIUM DISODIUM EDTA (TO PROTECT FLAVOR).", "allHighlightFields": "", "score": 333.21906, "foodNutrients": []}, {"fdcId": 979743, "description": "SIERRA MIST, LEMON-LIME FLAVORED SODA, LEMON-LIME, LEMON-LIME", "lowercaseDescription": "sierra mist, lemon-lime flavored soda, lemon-lime, lemon-lime", "dataType": "Branded", "gtinUpc": "012000140983", "publishedDate": "2020-06-26", "brandOwner": "Pepsi-Cola North America Inc.", "ingredients": "CARBONATED WATER, SUGAR, CITRIC ACID, NATURAL FLAVOR, POTASSIUM CITRATE, POTASSIUM SORBATE (PRESERVES FRESHNESS), PURIFIED STEVIA LEAF EXTRACT.", "allHighlightFields": "", "score": 333.21906, "foodNutrients": []}, {"fdcId": 979739, "description": "SIERRA MIST, LEMON-LIME FLAVORED SODA, LEMON-LIME, LEMON-LIME", "lowercaseDescription": "sierra mist, lemon-lime flavored soda, lemon-lime, lemon-lime", "dataType": "Branded", "gtinUpc": "012000111815", "publishedDate": "2020-06-26", "brandOwner": "Pepsi-Cola North America Inc.", "ingredients": "CARBONATED WATER, SUGAR, CITRIC ACID, NATURAL FLAVOR, POTASSIUM CITRATE, POTASSIUM SORBATE (PRESERVES FRESHNESS).", "allHighlightFields": "", "score": 333.21906, "foodNutrients": []}, {"fdcId": 991469, "description": "SIERRA MIST, NATURAL, LEMON-LIME SODA, LEMON LIME, LEMON-LIME", "lowercaseDescription": "sierra mist, natural, lemon-lime soda, lemon lime, lemon-lime", "dataType": "Branded", "gtinUpc": "012000395734", "publishedDate": "2020-06-26", "brandOwner": "Pepsi-Cola North America Inc.", "ingredients": "CARBONATED WATER, SUGAR, CITRIC ACID, NATURAL FLAVOR, POTASSIUM CITRATE.", "allHighlightFields": "", "score": 333.21906, "foodNutrients": []}, {"fdcId": 991453, "description": "SIERRA MIST, NATURAL, LEMON-LIME SODA, LEMON-LIME, LEMON-LIME", "lowercaseDescription": "sierra mist, natural, lemon-lime soda, lemon-lime, lemon-lime", "dataType": "Branded", "gtinUpc": "012000233197", "publishedDate": "2020-06-26", "brandOwner": "Pepsi-Cola North America Inc.", "ingredients": "CARBONATED WATER, SUGAR, CITRIC ACID, NATURAL FLAVOR, POTASSIUM CITRATE.", "allHighlightFields": "", "score": 333.21906, "foodNutrients": []}, {"fdcId": 991461, "description": "SIERRA MIST, NATURAL, LEMON-LIME SODA, LEMON-LIME, LEMON-LIME", "lowercaseDescription": "sierra mist, natural, lemon-lime soda, lemon-lime, lemon-lime", "dataType": "Branded", "gtinUpc": "012000302404", "publishedDate": "2020-06-26", "brandOwner": "Pepsi-Cola North America Inc.", "ingredients": "CARBONATED WATER, SUGAR, CITRIC ACID, NATURAL FLAVOR, POTASSIUM CITRATE.", "allHighlightFields": "", "score": 333.21906, "foodNutrients": []}, {"fdcId": 991493, "description": "SIERRA MIST, NATURAL, LEMON-LIME SODA, LEMON-LIME, LEMON-LIME", "lowercaseDescription": "sierra mist, natural, lemon-lime soda, lemon-lime, lemon-lime", "dataType": "Branded", "gtinUpc": "012000692505", "publishedDate": "2020-06-26", "brandOwner": "Pepsi-Cola North America Inc.", "ingredients": "CARBONATED WATER, SUGAR, CITRIC ACID, NATURAL FLAVOR, POTASSIUM CITRATE.", "allHighlightFields": "", "score": 333.21906, "foodNutrients": []}, {"fdcId": 991459, "description": "SIERRA MIST, NATURAL, LEMON-LIME SODA, LEMON-LIME, LEMON-LIME", "lowercaseDescription": "sierra mist, natural, lemon-lime soda, lemon-lime, lemon-lime", "dataType": "Branded", "gtinUpc": "012000325496", "publishedDate": "2020-06-26", "brandOwner": "Pepsi-Cola North America Inc.", "ingredients": "CARBONATED WATER, SUGAR, CITRIC ACID, NATURAL FLAVOR, POTASSIUM CITRATE.", "allHighlightFields": "", "score": 333.21906, "foodNutrients": []}, {"fdcId": 991443, "description": "SIERRA MIST, NATURAL, LEMON-LIME SODA, LEMON-LIME, LEMON-LIME", "lowercaseDescription": "sierra mist, natural, lemon-lime soda, lemon-lime, lemon-lime", "dataType": "Branded", "gtinUpc": "012000176111", "publishedDate": "2020-06-26", "brandOwner": "Pepsi-Cola North America Inc.", "ingredients": "CARBONATED WATER, SUGAR, CITRIC ACID, NATURAL FLAVOR, POTASSIUM CITRATE.", "allHighlightFields": "", "score": 333.21906, "foodNutrients": []}, {"fdcId": 991463, "description": "SIERRA MIST, NATURAL, LEMON-LIME SODA, LEMON-LIME, LEMON-LIME", "lowercaseDescription": "sierra mist, natural, lemon-lime soda, lemon-lime, lemon-lime", "dataType": "Branded", "gtinUpc": "012000341649", "publishedDate": "2020-06-26", "brandOwner": "Pepsi-Cola North America Inc.", "ingredients": "CARBONATED WATER, SUGAR, CITRIC ACID, NATURAL FLAVOR, POTASSIUM CITRATE.", "allHighlightFields": "", "score": 333.21906, "foodNutrients": []}, {"fdcId": 662336, "description": "SIERRA MIST, FLAVORED SODA, LEMON-LIME, LEMON-LIME", "lowercaseDescription": "sierra mist, flavored soda, lemon-lime, lemon-lime", "dataType": "Branded", "gtinUpc": "012000215094", "publishedDate": "2019-12-06", "brandOwner": "SIERRA MIST", "ingredients": "CARBONATED WATER, SUGAR, CITRIC ACID, NATURAL FLAVOR, POTASSIUM CITRATE, POTASSIUM SORBATE (PRESERVES FRESHNESS), PURIFIED STEVIA LEAF EXTRACT.", "allHighlightFields": "<b>Brand Owner</b>: SIERRA <em>MIST</em>", "score": 317.18637, "foodNutrients": [{"nutrientId": 1003, "nutrientName": "Protein", "nutrientNumber": "203", "unitName": "G", "derivationCode": "LCCS", "derivationDescription": "Calculated from value per serving size measure", "value": 0.0}, {"nutrientId": 1004, "nutrientName": "Total lipid (fat)", "nutrientNumber": "204", "unitName": "G", "derivationCode": "LCCD", "derivationDescription": "Calculated from a daily value percentage per serving size measure", "value": 0.0}, {"nutrientId": 1005, "nutrientName": "Carbohydrate, by difference", "nutrientNumber": "205", "unitName": "G", "derivationCode": "LCCS", "derivationDescription": "Calculated from value per serving size measure", "value": 8.29}, {"nutrientId": 1008, "nutrientName": "Energy", "nutrientNumber": "208", "unitName": "KCAL", "derivationCode": "LCCS", "derivationDescription": "Calculated from value per serving size measure", "value": 32.0}, {"nutrientId": 2000, "nutrientName": "Sugars, total including NLEA", "nutrientNumber": "269", "unitName": "G", "derivationCode": "LCCS", "derivationDescription": "Calculated from value per serving size measure", "value": 8.29}, {"nutrientId": 1093, "nutrientName": "Sodium, Na", "nutrientNumber": "307", "unitName": "MG", "derivationCode": "LCCS", "derivationDescription": "Calculated from value per serving size measure", "value": 9.0}]}, {"fdcId": 503179, "description": "SIERRA MIST, SODA, LEMON-LIME", "lowercaseDescription": "sierra mist, soda, lemon-lime", "dataType": "Branded", "gtinUpc": "01265107", "publishedDate": "2019-04-01", "brandOwner": "SIERRA MIST", "ingredients": "CARBONATED WATER, SUGAR, CITRIC ACID, NATURAL FLAVOR, POTASSIUM CITRATE, POTASSIUM SORBATE (PRESERVE FRESHNESS)", "allHighlightFields": "<b>Brand Owner</b>: SIERRA <em>MIST</em>", "score": 317.07953, "foodNutrients": [{"nutrientId": 1004, "nutrientName": "Total lipid (fat)", "nutrientNumber": "204", "unitName": "G", "derivationCode": "LCCD", "derivationDescription": "Calculated from a daily value percentage per serving size measure", "value": 0.0}, {"nutrientId": 1003, "nutrientName": "Protein", "nutrientNumber": "203", "unitName": "G", "derivationCode": "LCCS", "derivationDescription": "Calculated from value per serving size measure", "value": 0.0}, {"nutrientId": 1005, "nutrientName": "Carbohydrate, by difference", "nutrientNumber": "205", "unitName": "G", "derivationCode": "LCCS", "derivationDescription": "Calculated from value per serving size measure", "value": 10.3}, {"nutrientId": 1008, "nutrientName": "Energy", "nutrientNumber": "208", "unitName": "KCAL", "derivationCode": "LCCS", "derivationDescription": "Calculated from value per serving size measure", "value": 39.0}, {"nutrientId": 2000, "nutrientName": "Sugars, total including NLEA", "nutrientNumber": "269", "unitName": "G", "derivationCode": "LCCS", "derivationDescription": "Calculated from value per serving size measure", "value": 10.3}, {"nutrientId": 1093, "nutrientName": "Sodium, Na", "nutrientNumber": "307", "unitName": "MG", "derivationCode": "LCCS", "derivationDescription": "Calculated from value per serving size measure", "value": 8.0}]}, {"fdcId": 978845, "description": "DIET SIERRA MIST, FLAVORED SODA, LEMON-LIME, LEMON-LIME", "lowercaseDescription": "diet sierra mist, flavored soda, lemon-lime, lemon-lime", "dataType": "Branded", "gtinUpc": "012000101687", "publishedDate": "2020-06-26", "brandOwner": "Pepsi-Cola North America Inc.", "ingredients": "CARBONATED WATER, CITRIC ACID, NATURAL FLAVOR, POTASSIUM CITRATE, ASPARTAME, POTASSIUM BENZOATE (PRESERVES FRESHNESS), ACESULFAME POTASSIUM, ASCORBIC ACID (TO PROTECT FLAVOR), CALCIUM DISODIUM EDTA (TO PROTECT FLAVOR).", "allHighlightFields": "", "score": 270.392, "foodNutrients": []}, {"fdcId": 425523, "description": "SIERRA MIST, FLAVORED SODA, LEMON LIME", "lowercaseDescription": "sierra mist, flavored soda, lemon lime", "dataType": "Branded", "gtinUpc": "012000141713", "publishedDate": "2019-04-01", "brandOwner": "SIERRA MIST", "ingredients": "CARBONATED WATER, SUGAR, CITRIC ACID, NATURAL FLAVOR, POTASSIUM CITRATE, POTASSIUM SORBATE (PRESERVES FRESHNESS), PURIFIED STEVIA LEAF EXTRACT.", "allHighlightFields": "<b>Brand Owner</b>: SIERRA <em>MIST</em>", "score": 248.9359, "foodNutrients": [{"nutrientId": 1004, "nutrientName": "Total lipid (fat)", "nutrientNumber": "204", "unitName": "G", "derivationCode": "LCCD", "derivationDescription": "Calculated from a daily value percentage per serving size measure", "value": 0.0}, {"nutrientId": 1003, "nutrientName": "Protein", "nutrientNumber": "203", "unitName": "G", "derivationCode": "LCCS", "derivationDescription": "Calculated from value per serving size measure", "value": 0.0}, {"nutrientId": 1005, "nutrientName": "Carbohydrate, by difference", "nutrientNumber": "205", "unitName": "G", "derivationCode": "LCCS", "derivationDescription": "Calculated from value per serving size measure", "value": 8.25}, {"nutrientId": 1008, "nutrientName": "Energy", "nutrientNumber": "208", "unitName": "KCAL", "derivationCode": "LCCS", "derivationDescription": "Calculated from value per serving size measure", "value": 32.0}, {"nutrientId": 2000, "nutrientName": "Sugars, total including NLEA", "nutrientNumber": "269", "unitName": "G", "derivationCode": "LCCS", "derivationDescription": "Calculated from value per serving size measure", "value": 8.25}, {"nutrientId": 1093, "nutrientName": "Sodium, Na", "nutrientNumber": "307", "unitName": "MG", "derivationCode": "LCCS", "derivationDescription": "Calculated from value per serving size measure", "value": 10.0}]}, {"fdcId": 428579, "description": "SODASTREAM, CAPS, SIERRA MIST SODA MIX, LEMON-LIME", "lowercaseDescription": "sodastream, caps, sierra mist soda mix, lemon-lime", "dataType": "Branded", "gtinUpc": "811572022105", "publishedDate": "2019-04-01", "brandOwner": "SODASTREAM", "ingredients": "SUGAR, WATER, PROPYLENE GLYCOL, CITRIC ACID, POTASSIUM CITRATE, PURIFIED STEVIA LEAF EXTRACT, NATURAL FLAVOR, POTASSIUM SORBATE AND SODIUM BENZOATE (PRESERVE FRESHNESS), CALCIUM DISODIUM EDTA (TO PROTECT FLAVOR), PHOSPHORIC ACID.", "allHighlightFields": "", "score": 139.28583, "foodNutrients": [{"nutrientId": 1004, "nutrientName": "Total lipid (fat)", "nutrientNumber": "204", "unitName": "G", "derivationCode": "LCCD", "derivationDescription": "Calculated from a daily value percentage per serving size measure", "value": 0.0}, {"nutrientId": 1003, "nutrientName": "Protein", "nutrientNumber": "203", "unitName": "G", "derivationCode": "LCCS", "derivationDescription": "Calculated from value per serving size measure", "value": 0.0}, {"nutrientId": 1005, "nutrientName": "Carbohydrate, by difference", "nutrientNumber": "205", "unitName": "G", "derivationCode": "LCCS", "derivationDescription": "Calculated from value per serving size measure", "value": 5.83}, {"nutrientId": 1008, "nutrientName": "Energy", "nutrientNumber": "208", "unitName": "KCAL", "derivationCode": "LCCS", "derivationDescription": "Calculated from value per serving size measure", "value": 25.0}, {"nutrientId": 2000, "nutrientName": "Sugars, total including NLEA", "nutrientNumber": "269", "unitName": "G", "derivationCode": "LCCS", "derivationDescription": "Calculated from value per serving size measure", "value": 5.83}, {"nutrientId": 1093, "nutrientName": "Sodium, Na", "nutrientNumber": "307", "unitName": "MG", "derivationCode": "LCCS", "derivationDescription": "Calculated from value per serving size measure", "value": 10.0}]}], "aggregations": {"dataType": {"Branded": 30698, "SR Legacy": 97, "Survey (FNDDS)": 55, "Foundation": 2}, "nutrients": {}}}