{"totalHits": 3907, "currentPage": 1, "totalPages": 157, "pageList": [1, 2, 3, 4, 5, 6, 7, 8, 9, 10], "foodSearchCriteria": {"query": "Mtn Dew oz", "generalSearchInput": "Mtn Dew oz", "pageNumber": 1, "sortBy": "dataType.keyword", "sortOrder": "asc", "numberOfResultsPerPage": 50, "pageSize": 25, "requireAllWords": false}, "foods": [{"fdcId": 991409, "description": "MTN DEW, SODA", "lowercaseDescription": "mtn dew, soda", "dataType": "Branded", "gtinUpc": "012000110542", "publishedDate": "2020-06-26", "brandOwner": "Pepsi-Cola North America Inc.", "ingredients": "CARBONATED WATER, HIGH FRUCTOSE CORN SYRUP, CONCENTRATED ORANGE JUICE, CITRIC ACID, NATURAL FLAVOR, SODIUM BENZOATE (PRESERVES FRESHNESS), CAFFEINE, SODIUM CITRATE, ERYTHORBIC ACID (PRESERVES FRESHNESS), GUM ARABIC, CALCIUM DISODIUM EDTA (TO PROTECT FLAVOR), BROMINATED VEGETABLE OIL, YELLOW 5.", "allHighlightFields": "", "score": 453.59842, "foodNutrients": []}, {"fdcId": 975529, "description": "MTN DEW, SODA", "lowercaseDescription": "mtn dew, soda", "dataType": "Branded", "gtinUpc": "012000803864", "publishedDate": "2020-06-26", "brandOwner": "Pepsi-Cola North America Inc.", "ingredients": "CARBONATE WATER, HIGH FRUCTOSE CORN SYRUP, CONCENTRATED ORANGE JUICE, CITRIC ACID, NATURAL FLAVOR, SODIUM BENZOATE (PRESERVES FRESHNESS), CAFFEINE, SODIUM CITRATE, ERYTHORBIC ACID (PRESERVES FRESHNESS), GUM ARABIC, CALCIUM DISODIUM EDTA (TO PROTECT FLAVOR), BROMINATED VEGETABLE OIL, YELLOW 5.", "allHighlightFields": "", "score": 453.59842, "foodNutrients": []}, {"fdcId": 981943, "description": "MTN DEW, SODA", "lowercaseDescription": "mtn dew, soda", "dataType": "Branded", "gtinUpc": "012000591594", "publishedDate": "2020-06-26", "brandOwner": "Pepsi-Cola North America Inc.", "ingredients": "CARBONATED WATER, HIGH FRUCTOSE CORN SYRUP, CONCENTRATED ORANGE JUICE, CITRIC ACID, NATURAL FLAVOR, SODIUM BENZOATE (PRESERVES FRESHNESS), CAFFEINE, SODIUM CITRATE, ERYTHORBIC ACID (PRESERVES FRESHNESS), GUM ARABIC, CALCIUM DISODIUM EDTA (TO PROTECT FLAVOR), BROMINATED VEGETABEL OIL, YELLOW 5.", "allHighlightFields": "", "score": 453.59842, "foodNutrients": []}, {"fdcId": 991429, "description": "MTN DEW, SODA", "lowercaseDescription": "mtn dew, soda", "dataType": "Branded", "gtinUpc": "012000112386", "publishedDate": "2020-06-26", "brandOwner": "Pepsi-Cola North America Inc.", "ingredients": "CARBONATED WATER, HIGH FRUCTOSE CORN SYRUP, CONCENTRATED ORANGE JUICE, CITRIC ACID, NATURAL FLAVOR, SODIUM BENZOATE (PRESERVES FRESHNESS), CAFFEINE, SODIUM CITRATE, ERYTHORBIC ACID (PRESERVES FRESHNESS), GUM ARABIC, CALCIUM DISODIUM EDTA (TO PROTECT FLAVOR), BROMINATED VEGETABLE OIL, YELLOW 5.", "allHighlightFields": "", "score": 453.59842, "foodNutrients": []}, {"fdcId": 991391, "description": "MTN DEW, SODA", "lowercaseDescription": "mtn dew, soda", "dataType": "Branded", "gtinUpc": "012000102158", "publishedDate": "2020-06-26", "brandOwner": "Pepsi-Cola North America Inc.", "ingredients": "CARBONATED WATER, HIGH FRUCTOSE CORN SYRUP, CONCENTRATED ORANGE JUICE, CITRIC ACID, NATURAL FLAVOR, SODIUM BENZOATE (PRESERVES FRESHNESS), CAFFEINE, SODIUM CITRATE, ERYTHORBIC ACID (PRESERVES FRESHNESS), GUM ARABIC, CALCIUM DISODIUM EDTA (TO PROTECT FLAVOR), BROMINATED VEGETABLE OIL, YELLOW 5.", "allHighlightFields": "", "score": 453.59842, "foodNutrients": []}, {"fdcId": 991389, "description": "MTN DEW, SODA", "lowercaseDescription": "mtn dew, soda", "dataType": "Branded", "gtinUpc": "012000100499", "publishedDate": "2020-06-26", "brandOwner": "Pepsi-Cola North America Inc.", "ingredients": "CARBONATED WATER, HIGH FRUCTOSE CORN SYRUP, CONCENTRATED ORANGE JUICE, CITRIC ACID, NATURAL FLAVOR, SODIUM BENZOATE (PRESERVES FRESHNESS), CAFFEINE, SODIUM CITRATE, ERYTHORBIC ACID (PRESERVES FRESHNESS), GUM ARABIC, CALCIUM DISODIUM EDTA (TO PROTECT FLAVOR), BROMINATED VEGETABLE OIL, YELLOW 5.", "allHighlightFields": "", "score": 453.59842, "foodNutrients": []}, {"fdcId": 767270, "description": "Diet Mtn Dew 24FL OZ CAN", "lowercaseDescription": "diet mtn dew 24fl oz can", "dataType": "Branded", "gtinUpc": "00012000038020", "publishedDate": "2020-02-27", "brandOwner": "PepsiCo", "ingredients": "Carbonated Water, Concentrated Orange Juice, Citric Acid, Natural Flavor, Citrus Pectin, Potassium Benzoate (Preserves Freshness), Aspartame, Potassium Citrate, Caffeine, Sodium Citrate, Acesulfame Potassium, Sucralose, Gum Arabic, Sodium Benzoate (Preserves Freshness), Calcium Disodium EDTA (to Protect Flavor), Brominated Vegetable Oil, Yellow 5.", "allHighlightFields": "", "score": 436.97043, "foodNutrients": [{"nutrientId": 1003, "nutrientName": "Protein", "nutrientNumber": "203", "unitName": "G", "derivationCode": "LCSA", "derivationDescription": "Calculated from an approximate value per serving size measure", "value": 0.0}, {"nutrientId": 1004, "nutrientName": "Total lipid (fat)", "nutrientNumber": "204", "unitName": "G", "derivationCode": "LCCD", "derivationDescription": "Calculated from a daily value percentage per serving size measure", "value": 0.0}, {"nutrientId": 1005, "nutrientName": "Carbohydrate, by difference", "nutrientNumber": "205", "unitName": "G", "derivationCode": "LCCD", "derivationDescription": "Calculated from a daily value percentage per serving size measure", "value": 0.0}, {"nutrientId": 1008, "nutrientName": "Energy", "nutrientNumber": "208", "unitName": "KCAL", "derivationCode": "LCSA", "derivationDescription": "Calculated from an approximate value per serving size measure", "value": 0.0}, {"nutrientId": 2000, "nutrientName": "Sugars, total including NLEA", "nutrientNumber": "269", "unitName": "G", "derivationCode": "LCSA", "derivationDescription": "Calculated from an approximate value per serving size measure", "value": 0.0}, {"nutrientId": 1093, "nutrientName": "Sodium, Na", "nutrientNumber": "307", "unitName": "MG", "derivationCode": "LCSA", "derivationDescription": "Calculated from an approximate value per serving size measure", "value": 14.0}]}, {"fdcId": 974133, "description": "MTN DEW, SANGRITA BLAST", "lowercaseDescription": "mtn dew, sangrita blast", "dataType": "Branded", "gtinUpc": "012000141980", "publishedDate": "2020-06-26", "brandOwner": "Pepsi-Cola North America Inc.", "ingredients": "CARBONATED WATER, HIGH FRUCTOSE CORN SYRUP, CITRIC ACID, CARAMEL COLOR, NATURAL AND ARTIFICIAL FLAVOR, SODIUM CITRATE, SODIUM BENOATE (PRESERVES FRESHNESS), CAFFEINE, GUM ARABIC, RED 40, CALCIUM DISSODIUM EDTA (TO PROTECT FLAVOR), SUCROSE ACETATE ISOBUTYRATE, SALT, BLUE 1.", "allHighlightFields": "", "score": 361.4176, "foodNutrients": []}, {"fdcId": 978051, "description": "MTN DEW, SANGRITA BLAST, FLAVORED DEW SODA", "lowercaseDescription": "mtn dew, sangrita blast, flavored dew soda", "dataType": "Branded", "gtinUpc": "012000142062", "publishedDate": "2020-06-26", "brandOwner": "Pepsi-Cola North America Inc.", "ingredients": "CARBONATED WATER, HIGH FRUCTOSE CORN SYRUP, CITRIC ACID, CARAMEL COLOR, NATURAL AND ARTIFICIAL FLAVOR, SODIUM CITRATE, SODIUM BENZOATE (PRESERVES FRESHNESS), CAFFEINE, GUM ARABIC, RED 40, CALCIUM DISODIUM EDTA (TO PROTECT FLAVOR), SUCROSE ACETATE, ISOBUTYRATE, SALT, BLUE 1.", "allHighlightFields": "", "score": 323.8234, "foodNutrients": []}, {"fdcId": 978851, "description": "MTN DEW, LOW SODIUM SODA", "lowercaseDescription": "mtn dew, low sodium soda", "dataType": "Branded", "gtinUpc": "012000111747", "publishedDate": "2020-06-26", "brandOwner": "Pepsi-Cola North America Inc.", "ingredients": "CARBONATED WATER, HIGH FRUCTOSE CORN SYRUP, CONCENTRATED ORANGE JUICE, CITRIC ACID, NATURAL FLAVOR, SODIUM BENZOATE (PRESERVES FRESHNESS), CAFFEINE, SODIUM CITRATE, ERYTHORBIC ACID (PRESERVES FRESHNESS), GUM ARABIC, CALCIUM DISODIUM EDTA (TO PROTECT FLAVOR), BROMINATED VEGETABLE OIL, YELLOW 5.", "allHighlightFields": "", "score": 284.16586, "foodNutrients": []}, {"fdcId": 991413, "description": "MTN DEW, SODA, CITRUS, CITRUS", "lowercaseDescription": "mtn dew, soda, citrus, citrus", "dataType": "Branded", "gtinUpc": "012000110948", "publishedDate": "2020-06-26", "brandOwner": "Pepsi-Cola North America Inc.", "ingredients": "CARBONATED WATER, HIGH FRUCTOSE CORN SYRUP, CITRIC ACID, NATURAL FLAVOR, SODIUM BENZOATE PRESERVES FRESHNESS), GUM ARABIC, CAFFEINE. SODIUM CITRATE, GLYCEROL ESTER OF ROSIN, CALCIUM DISODIUM EDTA (TO PROTECT FLAVOR), BROMINATED VEGETABLE OIL.", "allHighlightFields": "", "score": 284.16586, "foodNutrients": []}, {"fdcId": 991481, "description": "MTN DEW, SODA, DISTORTION, DISTORTION", "lowercaseDescription": "mtn dew, soda, distortion, distortion", "dataType": "Branded", "gtinUpc": "012000573316", "publishedDate": "2020-06-26", "brandOwner": "Pepsi-Cola North America Inc.", "ingredients": "CARBONATED WATER, HIGH FRUCTOSE CORN SYRUP, CITRIC ACID, NATURAL AND ARTIFICIAL FLAVOR, SODIUM BENZOATE (PRESERVES FRESHNESS), CAFFEINE, SODIUM CITRATE, GUM ARABIC, CALCIUM DISODIUM EDTA (TO PROTECT FLAVOR), BROMINATED VEGETABLE OIL, YELLOW 5, BLUE 1.", "allHighlightFields": "", "score": 284.16586, "foodNutrients": []}, {"fdcId": 991491, "description": "MTN DEW, SODA, TYPHOON, TYPHOON", "lowercaseDescription": "mtn dew, soda, typhoon, typhoon", "dataType": "Branded", "gtinUpc": "012000668913", "publishedDate": "2020-06-26", "brandOwner": "Pepsi-Cola North America Inc.", "ingredients": "CARBONATE WATER, HIGH FRUCTOSE CORN SYRUP, CITRIC ACID, NATURAL FLAVOR, SODIUM BENZOATE (PRESERVES FRESHNESS), GUM ARABIC, CAFFEINE, SODIUM CITRATE, GLYCEROL ESTER OF ROSIN, CALCIUM DISODIUM EDTA (TO PROTECT FLAVOR), BROMINATED VEGETABLE OIL, RED 40, YELLOW 5.", "allHighlightFields": "", "score": 284.16586, "foodNutrients": []}, {"fdcId": 767242, "description": "Mtn Dew THROWBCK 12FLOZ CN SGL", "lowercaseDescription": "mtn dew throwbck 12floz cn sgl", "dataType": "Branded", "gtinUpc": "00012000032448", "publishedDate": "2020-02-27", "brandOwner": "PepsiCo", "ingredients": "Carbonated Water, Sugar, Orange Juice Concentrate, Citric Acid, Natural Flavor, Sodium Benzoate (Preserves Freshness), Caffeine, Sodium Citrate, Gum Arabic, Erythorbic Acid (Preserves Freshness), Calcium Disodium EDTA (to Protect Flavor), Brominated Vegetable Oil, Yellow 5.", "allHighlightFields": "", "score": 218.4878, "foodNutrients": [{"nutrientId": 1003, "nutrientName": "Protein", "nutrientNumber": "203", "unitName": "G", "derivationCode": "LCSA", "derivationDescription": "Calculated from an approximate value per serving size measure", "value": 0.0}, {"nutrientId": 1004, "nutrientName": "Total lipid (fat)", "nutrientNumber": "204", "unitName": "G", "derivationCode": "LCCD", "derivationDescription": "Calculated from a daily value percentage per serving size measure", "value": 0.0}, {"nutrientId": 1005, "nutrientName": "Carbohydrate, by difference", "nutrientNumber": "205", "unitName": "G", "derivationCode": "LCSA", "derivationDescription": "Calculated from an approximate value per serving size measure", "value": 12.2}, {"nutrientId": 1008, "nutrientName": "Energy", "nutrientNumber": "208", "unitName": "KCAL", "derivationCode": "LCSA", "derivationDescription": "Calculated from an approximate value per serving size measure", "value": 47.0}, {"nutrientId": 2000, "nutrientName": "Sugars, total including NLEA", "nutrientNumber": "269", "unitName": "G", "derivationCode": "LCSA", "derivationDescription": "Calculated from an approximate value per serving size measure", "value": 12.2}, {"nutrientId": 1093, "nutrientName": "Sodium, Na", "nutrientNumber": "307", "unitName": "MG", "derivationCode": "LCSA", "derivationDescription": "Calculated from an approximate value per serving size measure", "value": 18.0}]}, {"fdcId": 979783, "description": "MTN DEW, GAME FUEL, MANGO HEAT", "lowercaseDescription": "mtn dew, game fuel, mango heat", "dataType": "Branded", "gtinUpc": "012000160561", "publishedDate": "2020-06-26", "brandOwner": "Pepsi-Cola North America Inc.", "ingredients": "CARBONATED WATER, HIGH FRUCTOSE CORN SYRUP, CITRIC ACID, NATURAL FLAVOR, SODIUM BENZOATE (PRESERVES FRESHNESS), GUM ARABIC, CAFFEINE, SODIUM CITRATE, CITRUS PECTIN, ACESULFAME POTASSIUM, SUCRALOSE, GLYCEROL ESTER OF ROSIN, CALCIUM DISODIUM EDTA (TO PROTECT FLAVOR), YELLOW 6, SUCROSE ACETATE ISOBUTYRATE.", "allHighlightFields": "", "score": 218.4878, "foodNutrients": []}, {"fdcId": 766290, "description": "Diet Mtn Dew 1.5 Liter Plastic Bottle", "lowercaseDescription": "diet mtn dew 1.5 liter plastic bottle", "dataType": "Branded", "gtinUpc": "00012000804069", "publishedDate": "2020-02-27", "brandOwner": "PepsiCo", "ingredients": "Carbonated Water, Concentrated Orange Juice, Citric Acid, Natural Flavor, Citrus Pectin, Potassium Benzoate (Preserves Freshness), Aspartame, Potassium Citrate, Caffeine, Sodium Citrate, Acesulfame Potassium, Sucralose, Gum Arabic, Sodium Benzoate (Preserves Freshness), Calcium Disodium EDTA (to Protect Flavor), Brominated Vegetable Oil, Yellow 5. PHENYLKETONURICS: CONTAINS PHENYLALANINE.", "allHighlightFields": "", "score": 161.96396, "foodNutrients": [{"nutrientId": 1003, "nutrientName": "Protein", "nutrientNumber": "203", "unitName": "G", "derivationCode": "LCSA", "derivationDescription": "Calculated from an approximate value per serving size measure", "value": 0.0}, {"nutrientId": 1004, "nutrientName": "Total lipid (fat)", "nutrientNumber": "204", "unitName": "G", "derivationCode": "LCCD", "derivationDescription": "Calculated from a daily value percentage per serving size measure", "value": 0.0}, {"nutrientId": 1005, "nutrientName": "Carbohydrate, by difference", "nutrientNumber": "205", "unitName": "G", "derivationCode": "LCCD", "derivationDescription": "Calculated from a daily value percentage per serving size measure", "value": 0.0}, {"nutrientId": 1008, "nutrientName": "Energy", "nutrientNumber": "208", "unitName": "KCAL", "derivationCode": "LCSA", "derivationDescription": "Calculated from an approximate value per serving size measure", "value": 0.0}, {"nutrientId": 2000, "nutrientName": "Sugars, total including NLEA", "nutrientNumber": "269", "unitName": "G", "derivationCode": "LCSA", "derivationDescription": "Calculated from an approximate value per serving size measure", "value": 0.0}, {"nutrientId": 1093, "nutrientName": "Sodium, Na", "nutrientNumber": "307", "unitName": "MG", "derivationCode": "LCSA", "derivationDescription": "Calculated from an approximate value per serving size measure", "value": 14.0}]}, {"fdcId": 761444, "description": "Diet Mtn Dew 7.5 Fluid Ounces Can", "lowercaseDescription": "diet mtn dew 7.5 fluid ounces can", "dataType": "Branded", "gtinUpc": "00012000111211", "publishedDate": "2020-02-27", "brandOwner": "PepsiCo", "ingredients": "Carbonated Water, Concentrated Orange Juice, Citric Acid, Natural Flavor, Citrus Pectin, Potassium Benzoate (Preserves Freshness), Aspartame, Potassium Citrate, Caffeine, Sodium Citrate, Acesulfame Potassium, Sucralose, Gum Arabic, Sodium Benzoate (Preserves Freshness), Calcium Disodium EDTA (to Protect Flavor), Brominated Vegetable Oil, Yellow 5.  PHENYLKETONURICS: CONTAINS PHENYLALANINE", "allHighlightFields": "", "score": 161.96396, "foodNutrients": [{"nutrientId": 1003, "nutrientName": "Protein", "nutrientNumber": "203", "unitName": "G", "derivationCode": "LCSA", "derivationDescription": "Calculated from an approximate value per serving size measure", "value": 0.0}, {"nutrientId": 1004, "nutrientName": "Total lipid (fat)", "nutrientNumber": "204", "unitName": "G", "derivationCode": "LCCD", "derivationDescription": "Calculated from a daily value percentage per serving size measure", "value": 0.0}, {"nutrientId": 1005, "nutrientName": "Carbohydrate, by difference", "nutrientNumber": "205", "unitName": "G", "derivationCode": "LCCD", "derivationDescription": "Calculated from a daily value percentage per serving size measure", "value": 0.0}, {"nutrientId": 1008, "nutrientName": "Energy", "nutrientNumber": "208", "unitName": "KCAL", "derivationCode": "LCSA", "derivationDescription": "Calculated from an approximate value per serving size measure", "value": 0.0}, {"nutrientId": 1057, "nutrientName": "Caffeine", "nutrientNumber": "262", "unitName": "MG", "derivationCode": "LCSA", "derivationDescription": "Calculated from an approximate value per serving size measure", "value": 15.0}, {"nutrientId": 2000, "nutrientName": "Sugars, total including NLEA", "nutrientNumber": "269", "unitName": "G", "derivationCode": "LCSA", "derivationDescription": "Calculated from an approximate value per serving size measure", "value": 0.0}, {"nutrientId": 1093, "nutrientName": "Sodium, Na", "nutrientNumber": "307", "unitName": "MG", "derivationCode": "LCSA", "derivationDescription": "Calculated from an approximate value per serving size measure", "value": 13.0}]}, {"fdcId": 762522, "description": "Mtn Dew Soda 12 Fluid Ounce Can", "lowercaseDescription": "mtn dew soda 12 fluid ounce can", "dataType": "Branded", "gtinUpc": "00012000000850", "publishedDate": "2020-02-27", "brandOwner": "PepsiCo", "ingredients": "Carbonated Water, High Fructose Corn Syrup, Concentrated Orange Juice, Citric Acid, Natural Flavor, Sodium Benzoate (Preserves Freshness), Caffeine, Sodium Citrate, Erythorbic Acid (Preserves Freshness), Gum Arabic, Calcium Disodium EDTA (to Protect Flavor), Brominated Vegetable Oil, Yellow 5.", "allHighlightFields": "", "score": 161.96396, "foodNutrients": [{"nutrientId": 1003, "nutrientName": "Protein", "nutrientNumber": "203", "unitName": "G", "derivationCode": "LCSA", "derivationDescription": "Calculated from an approximate value per serving size measure", "value": 0.0}, {"nutrientId": 1004, "nutrientName": "Total lipid (fat)", "nutrientNumber": "204", "unitName": "G", "derivationCode": "LCCD", "derivationDescription": "Calculated from a daily value percentage per serving size measure", "value": 0.0}, {"nutrientId": 1005, "nutrientName": "Carbohydrate, by difference", "nutrientNumber": "205", "unitName": "G", "derivationCode": "LCSA", "derivationDescription": "Calculated from an approximate value per serving size measure", "value": 12.8}, {"nutrientId": 1008, "nutrientName": "Energy", "nutrientNumber": "208", "unitName": "KCAL", "derivationCode": "LCSA", "derivationDescription": "Calculated from an approximate value per serving size measure", "value": 47.0}, {"nutrientId": 2000, "nutrientName": "Sugars, total including NLEA", "nutrientNumber": "269", "unitName": "G", "derivationCode": "LCSA", "derivationDescription": "Calculated from an approximate value per serving size measure", "value": 12.8}, {"nutrientId": 1093, "nutrientName": "Sodium, Na", "nutrientNumber": "307", "unitName": "MG", "derivationCode": "LCSA", "derivationDescription": "Calculated from an approximate value per serving size measure", "value": 17.0}]}, {"fdcId": 763214, "description": "Mtn Dew Soda 2 Liter Plastic Bottle", "lowercaseDescription": "mtn dew soda 2 liter plastic bottle", "dataType": "Branded", "gtinUpc": "00012000002335", "publishedDate": "2020-02-27", "brandOwner": "PepsiCo", "ingredients": "Carbonated Water, High Fructose Corn Syrup, Concentrated Orange Juice, Citric Acid, Natural Flavor, Sodium Benzoate (Preserves Freshness), Caffeine, Sodium Citrate, Erythorbic Acid (Preserves Freshness), Gum Arabic, Calcium Disodium EDTA (to Protect Flavor), Brominated Vegetable Oil, Yellow 5.", "allHighlightFields": "", "score": 161.96396, "foodNutrients": [{"nutrientId": 1003, "nutrientName": "Protein", "nutrientNumber": "203", "unitName": "G", "derivationCode": "LCSA", "derivationDescription": "Calculated from an approximate value per serving size measure", "value": 0.0}, {"nutrientId": 1004, "nutrientName": "Total lipid (fat)", "nutrientNumber": "204", "unitName": "G", "derivationCode": "LCCD", "derivationDescription": "Calculated from a daily value percentage per serving size measure", "value": 0.0}, {"nutrientId": 1005, "nutrientName": "Carbohydrate, by difference", "nutrientNumber": "205", "unitName": "G", "derivationCode": "LCSA", "derivationDescription": "Calculated from an approximate value per serving size measure", "value": 12.8}, {"nutrientId": 1008, "nutrientName": "Energy", "nutrientNumber": "208", "unitName": "KCAL", "derivationCode": "LCSA", "derivationDescription": "Calculated from an approximate value per serving size measure", "value": 47.0}, {"nutrientId": 2000, "nutrientName": "Sugars, total including NLEA", "nutrientNumber": "269", "unitName": "G", "derivationCode": "LCSA", "derivationDescription": "Calculated from an approximate value per serving size measure", "value": 12.8}, {"nutrientId": 1093, "nutrientName": "Sodium, Na", "nutrientNumber": "307", "unitName": "MG", "derivationCode": "LCSA", "derivationDescription": "Calculated from an approximate value per serving size measure", "value": 17.0}]}, {"fdcId": 764880, "description": "Mtn Dew Soda 24 Fluid Ounce Can", "lowercaseDescription": "mtn dew soda 24 fluid ounce can", "dataType": "Branded", "gtinUpc": "00012000038013", "publishedDate": "2020-02-27", "brandOwner": "PepsiCo", "ingredients": "Carbonated Water, High Fructose Corn Syrup, Concentrated Orange Juice, Citric Acid, Natural Flavor, Sodium Benzoate (Preserves Freshness), Caffeine, Sodium Citrate, Erythorbic Acid (Preserves Freshness), Gum Arabic, Calcium Disodium EDTA (to Protect Flavor), Brominated Vegetable Oil, Yellow 5.", "allHighlightFields": "", "score": 161.96396, "foodNutrients": [{"nutrientId": 1003, "nutrientName": "Protein", "nutrientNumber": "203", "unitName": "G", "derivationCode": "LCSA", "derivationDescription": "Calculated from an approximate value per serving size measure", "value": 0.0}, {"nutrientId": 1004, "nutrientName": "Total lipid (fat)", "nutrientNumber": "204", "unitName": "G", "derivationCode": "LCCD", "derivationDescription": "Calculated from a daily value percentage per serving size measure", "value": 0.0}, {"nutrientId": 1005, "nutrientName": "Carbohydrate, by difference", "nutrientNumber": "205", "unitName": "G", "derivationCode": "LCSA", "derivationDescription": "Calculated from an approximate value per serving size measure", "value": 12.8}, {"nutrientId": 1008, "nutrientName": "Energy", "nutrientNumber": "208", "unitName": "KCAL", "derivationCode": "LCSA", "derivationDescription": "Calculated from an approximate value per serving size measure", "value": 47.0}, {"nutrientId": 2000, "nutrientName": "Sugars, total including NLEA", "nutrientNumber": "269", "unitName": "G", "derivationCode": "LCSA", "derivationDescription": "Calculated from an approximate value per serving size measure", "value": 12.8}, {"nutrientId": 1093, "nutrientName": "Sodium, Na", "nutrientNumber": "307", "unitName": "MG", "derivationCode": "LCSA", "derivationDescription": "Calculated from an approximate value per serving size measure", "value": 18.0}]}, {"fdcId": 991495, "description": "MTN DEW, LIVE WIRE, SODA, ORANGE, ORANGE", "lowercaseDescription": "mtn dew, live wire, soda, orange, orange", "dataType": "Branded", "gtinUpc": "012000811326", "publishedDate": "2020-06-26", "brandOwner": "Pepsi-Cola North America Inc.", "ingredients": "CARBONATED WATER, HIGH FRUCTOSE CORN SYRUP, NATURAL AND ARTIFICIAL FLAVOR, ORANGE JUICE CONCENTRATE, CITRIC ACID, SODIUM BENZOATE (PRESERVES FRESHNESS), CAFFEINE, SODIUM CITRATE, YELLOW 6, CALCIUM DISODIUM EDTA (TO PROTECT FLAVOR), GUM ARABIC, BROMINATED VEGETABLE OIL, YELLOW 5, RED 40.", "allHighlightFields": "", "score": 161.96396, "foodNutrients": []}, {"fdcId": 974153, "description": "MTN DEW, SODA, BERRY LIME, BERRY LIME", "lowercaseDescription": "mtn dew, soda, berry lime, berry lime", "dataType": "Branded", "gtinUpc": "012000150791", "publishedDate": "2020-06-26", "brandOwner": "Pepsi-Cola North America Inc.", "ingredients": "CARBONATED WATER, HIGH FRUCTOSE CORN SYRUP, CITRIC ACID, NATURAL FLAVOR, SODIUM BENZOATE (PRESERVES FRESHNESS), CAFFEINE, GUM ARABIC, SODIUM CITRATE, CALCIUM DISODIUM EDTA (TO PROTECT FLAVOR), SUCROSE ACETATE ISOBUTYRATE, BLUE 1, YELLOW 6.", "allHighlightFields": "", "score": 161.96396, "foodNutrients": []}, {"fdcId": 991487, "description": "MTN DEW, VOLTAGE, DIET SODA, RASPBERRY, RASPBERRY", "lowercaseDescription": "mtn dew, voltage, diet soda, raspberry, raspberry", "dataType": "Branded", "gtinUpc": "012000573699", "publishedDate": "2020-06-26", "brandOwner": "Pepsi-Cola North America Inc.", "ingredients": "CARBONATED WATER, CITRIC ACID, NATURAL FLAVOR, POTASSIUM BENZOATE (PRESERVES FRESHNESS), POTASSIUM CITRATE, ASPARTAME, PECTIN, CAFFEINE, GUM ARABIC, ACESULFAME POTASSIUM, BROMINATED VEGETABLE OIL, BLUE 1, RED 40.", "allHighlightFields": "", "score": 161.96396, "foodNutrients": []}, {"fdcId": 765736, "description": "Mtn Dew Soda (8 - 12 Fl Oz) 96 Fluid Ounce Plastic Bottles", "lowercaseDescription": "mtn dew soda (8 - 12 fl oz) 96 fluid ounce plastic bottles", "dataType": "Branded", "gtinUpc": "00012000015939", "publishedDate": "2020-02-27", "brandOwner": "PepsiCo", "ingredients": "Carbonated Water, High Fructose Corn Syrup, Concentrated Orange Juice, Citric Acid, Natural Flavor, Sodium Benzoate (Preserves Freshness), Caffeine, Sodium Citrate, Erythorbic Acid (Preserves Freshness), Gum Arabic, Calcium Disodium EDTA (to Protect Flavor), Brominated Vegetable Oil, Yellow 5.", "allHighlightFields": "", "score": 117.71523, "foodNutrients": [{"nutrientId": 1003, "nutrientName": "Protein", "nutrientNumber": "203", "unitName": "G", "derivationCode": "LCSA", "derivationDescription": "Calculated from an approximate value per serving size measure", "value": 0.0}, {"nutrientId": 1004, "nutrientName": "Total lipid (fat)", "nutrientNumber": "204", "unitName": "G", "derivationCode": "LCCD", "derivationDescription": "Calculated from a daily value percentage per serving size measure", "value": 0.0}, {"nutrientId": 1005, "nutrientName": "Carbohydrate, by difference", "nutrientNumber": "205", "unitName": "G", "derivationCode": "LCSA", "derivationDescription": "Calculated from an approximate value per serving size measure", "value": 12.8}, {"nutrientId": 1008, "nutrientName": "Energy", "nutrientNumber": "208", "unitName": "KCAL", "derivationCode": "LCSA", "derivationDescription": "Calculated from an approximate value per serving size measure", "value": 47.0}, {"nutrientId": 2000, "nutrientName": "Sugars, total including NLEA", "nutrientNumber": "269", "unitName": "G", "derivationCode": "LCSA", "derivationDescription": "Calculated from an approximate value per serving size measure", "value": 12.8}, {"nutrientId": 1093, "nutrientName": "Sodium, Na", "nutrientNumber": "307", "unitName": "MG", "derivationCode": "LCSA", "derivationDescription": "Calculated from an approximate value per serving size measure", "value": 17.0}]}, {"fdcId": 765060, "description": "Diet Mtn Dew Soda 2 Liter Plastic Bottle", "lowercaseDescription": "diet mtn dew soda 2 liter plastic bottle", "dataType": "Branded", "gtinUpc": "00012000007460", "publishedDate": "2020-02-27", "brandOwner": "PepsiCo", "ingredients": "Carbonated Water, Concentrated Orange Juice, Citric Acid, Natural Flavor, Citrus Pectin, Potassium Benzoate (Preserves Freshness), Aspartame, Potassium Citrate, Caffeine, Sodium Citrate, Acesulfame Potassium, Sucralose, Gum Arabic, Sodium Benzoate (Preserves Freshness), Calcium Disodium EDTA (to Protect Flavor), Brominated Vegetable Oil, Yellow 5. PHENYLKETONURICS CONTAINS PHENYLALANINE.", "allHighlightFields": "", "score": 112.80505, "foodNutrients": [{"nutrientId": 1003, "nutrientName": "Protein", "nutrientNumber": "203", "unitName": "G", "derivationCode": "LCSA", "derivationDescription": "Calculated from an approximate value per serving size measure", "value": 0.0}, {"nutrientId": 1004, "nutrientName": "Total lipid (fat)", "nutrientNumber": "204", "unitName": "G", "derivationCode": "LCCD", "derivationDescription": "Calculated from a daily value percentage per serving size measure", "value": 0.0}, {"nutrientId": 1005, "nutrientName": "Carbohydrate, by difference", "nutrientNumber": "205", "unitName": "G", "derivationCode": "LCCD", "derivationDescription": "Calculated from a daily value percentage per serving size measure", "value": 0.0}, {"nutrientId": 1008, "nutrientName": "Energy", "nutrientNumber": "208", "unitName": "KCAL", "derivationCode": "LCSA", "derivationDescription": "Calculated from an approximate value per serving size measure", "value": 0.0}, {"nutrientId": 2000, "nutrientName": "Sugars, total including NLEA", "nutrientNumber": "269", "unitName": "G", "derivationCode": "LCSA", "derivationDescription": "Calculated from an approximate value per serving size measure", "value": 0.0}, {"nutrientId": 1093, "nutrientName": "Sodium, Na", "nutrientNumber": "307", "unitName": "MG", "derivationCode": "LCSA", "derivationDescription": "Calculated from an approximate value per serving size measure", "value": 14.0}]}], "aggregations": {"dataType": {"Branded": 3898, "Survey (FNDDS)": 5, "SR Legacy": 4}, "nutrients": {}}}