{"totalHits": 159760, "currentPage": 1, "totalPages": 6391, "pageList": [1, 2, 3, 4, 5, 6, 7, 8, 9, 10], "foodSearchCriteria": {"query": "Dasani Bottled Water", "generalSearchInput": "Dasani Bottled Water", "pageNumber": 1, "sortBy": "dataType.keyword", "sortOrder": "asc", "numberOfResultsPerPage": 50, "pageSize": 25, "requireAllWords": false}, "foods": [{"fdcId": 981941, "description": "DASANI, PURIFIED WATER", "lowercaseDescription": "dasani, purified water", "dataType": "Branded", "gtinUpc": "049000028706", "publishedDate": "2020-06-26", "brandOwner": "Coca-Cola USA Operations", "ingredients": "PURIFIED WATER, MAGNESIUM SULFATE, POTASSIUM CHLORIDE, SALT.*+", "allHighlightFields": "<b>Ingredients</b>: PURIFIED <em>WATER</em>, MAGNESIUM SULFATE, POTASSIUM CHLORIDE, SALT.*+", "score": 217.39209, "foodNutrients": []}, {"fdcId": 989317, "description": "DASANI, PURIFIED WATER", "lowercaseDescription": "dasani, purified water", "dataType": "Branded", "gtinUpc": "049000029734", "publishedDate": "2020-06-26", "brandOwner": "Coca-Cola USA Operations", "ingredients": "PURIFIED WATER, MAGNESIUM SULFATE, POTASSIUM CHLORIDE, SALT.*+", "allHighlightFields": "<b>Ingredients</b>: PURIFIED <em>WATER</em>, MAGNESIUM SULFATE, POTASSIUM CHLORIDE, SALT.*+", "score": 217.39209, "foodNutrients": []}, {"fdcId": 991181, "description": "DASANI, SPARKLING WATER BEVERAGE, BERRY, BERRY", "lowercaseDescription": "dasani, sparkling water beverage, berry, berry", "dataType": "Branded", "gtinUpc": "049000063783", "publishedDate": "2020-06-26", "brandOwner": "Coca-Cola USA Operations", "ingredients": "CARBONATED WATER, NATURAL FLAVORS.", "allHighlightFields": "<b>Ingredients</b>: CARBONATED <em>WATER</em>, NATURAL FLAVORS.", "score": 35.364113, "foodNutrients": []}, {"fdcId": 979923, "description": "DASANI, SPARKLING WATER BEVERAGE, LEMON, LEMON", "lowercaseDescription": "dasani, sparkling water beverage, lemon, lemon", "dataType": "Branded", "gtinUpc": "049000068818", "publishedDate": "2020-06-26", "brandOwner": "Coca-Cola USA Operations", "ingredients": "CARBONATED WATER, NATURAL FLAVOR, UNSWEETENED.", "allHighlightFields": "<b>Ingredients</b>: CARBONATED <em>WATER</em>, NATURAL FLAVOR, UNSWEETENED.", "score": 35.364113, "foodNutrients": []}, {"fdcId": 991193, "description": "DASANI, SPARKLING WATER BEVERAGE, LIME, LIME", "lowercaseDescription": "dasani, sparkling water beverage, lime, lime", "dataType": "Branded", "gtinUpc": "049000063745", "publishedDate": "2020-06-26", "brandOwner": "Coca-Cola USA Operations", "ingredients": "CARBONATED WATER, NATURAL FLAVOR.", "allHighlightFields": "<b>Ingredients</b>: CARBONATED <em>WATER</em>, NATURAL FLAVOR.", "score": 35.364113, "foodNutrients": []}, {"fdcId": 978979, "description": "DASANI, SPARKLING WATER BEVERAGE, LIME, LIME", "lowercaseDescription": "dasani, sparkling water beverage, lime, lime", "dataType": "Branded", "gtinUpc": "049000068788", "publishedDate": "2020-06-26", "brandOwner": "Coca-Cola USA Operations", "ingredients": "CARBONATED WATER, NATURAL FLAVOR.", "allHighlightFields": "<b>Ingredients</b>: CARBONATED <em>WATER</em>, NATURAL FLAVOR.", "score": 35.364113, "foodNutrients": []}, {"fdcId": 972573, "description": "DASANI, SPARKLING WATER BEVERAGE, MEYER LEMON", "lowercaseDescription": "dasani, sparkling water beverage, meyer lemon", "dataType": "Branded", "gtinUpc": "049000072419", "publishedDate": "2020-06-26", "brandOwner": "Coca-Cola USA Operations", "ingredients": "CARBONATED WATER, NATURAL FLAVORS.", "allHighlightFields": "<b>Ingredients</b>: CARBONATED <em>WATER</em>, NATURAL FLAVORS.", "score": 35.364113, "foodNutrients": []}, {"fdcId": 992273, "description": "DASANI, UNSWEETENED SPARKLING WATER BEVERAGE, BERRY", "lowercaseDescription": "dasani, unsweetened sparkling water beverage, berry", "dataType": "Branded", "gtinUpc": "049000168853", "publishedDate": "2020-06-26", "brandOwner": "Coca-Cola USA Operations", "ingredients": "CARBONATED WATER, NATURAL FLAVORS.", "allHighlightFields": "<b>Ingredients</b>: CARBONATED <em>WATER</em>, NATURAL FLAVORS.", "score": 35.364113, "foodNutrients": []}, {"fdcId": 509125, "description": "WATER BOTTLE WITH CANDY", "lowercaseDescription": "water bottle with candy", "dataType": "Branded", "gtinUpc": "041260369544", "publishedDate": "2019-04-01", "brandOwner": "Dillon Companies, Inc.", "ingredients": "DEXTROSE, CORN SYRUP, CORN STARCH, MAGNESIUM STEARATE, CITRIC ACID, MALTODEXTRIN, ARTIFICIAL FLAVORS, GUM ARABIC, CONFECTIONER'S GLAZE, CARNAUBA WAX, TITANIUM DIOXIDE (FOR COLOR), YELLOW 6, YELLOW 5, RED 40 LAKE, YELLOW 5 LAKE, BLUE 1 LAKE, RED 3.", "allHighlightFields": "", "score": 23.769085, "foodNutrients": [{"nutrientId": 1004, "nutrientName": "Total lipid (fat)", "nutrientNumber": "204", "unitName": "G", "derivationCode": "LCCD", "derivationDescription": "Calculated from a daily value percentage per serving size measure", "value": 0.0}, {"nutrientId": 1079, "nutrientName": "Fiber, total dietary", "nutrientNumber": "291", "unitName": "G", "derivationCode": "LCCD", "derivationDescription": "Calculated from a daily value percentage per serving size measure", "value": 0.0}, {"nutrientId": 1087, "nutrientName": "Calcium, Ca", "nutrientNumber": "301", "unitName": "MG", "derivationCode": "LCCD", "derivationDescription": "Calculated from a daily value percentage per serving size measure", "value": 0.0}, {"nutrientId": 1089, "nutrientName": "Iron, Fe", "nutrientNumber": "303", "unitName": "MG", "derivationCode": "LCCD", "derivationDescription": "Calculated from a daily value percentage per serving size measure", "value": 0.0}, {"nutrientId": 1093, "nutrientName": "Sodium, Na", "nutrientNumber": "307", "unitName": "MG", "derivationCode": "LCCD", "derivationDescription": "Calculated from a daily value percentage per serving size measure", "value": 0.0}, {"nutrientId": 1104, "nutrientName": "Vitamin A, IU", "nutrientNumber": "318", "unitName": "IU", "derivationCode": "LCCD", "derivationDescription": "Calculated from a daily value percentage per serving size measure", "value": 0.0}, {"nutrientId": 1162, "nutrientName": "Vitamin C, total ascorbic acid", "nutrientNumber": "401", "unitName": "MG", "derivationCode": "LCCD", "derivationDescription": "Calculated from a daily value percentage per serving size measure", "value": 0.0}, {"nutrientId": 1253, "nutrientName": "Cholesterol", "nutrientNumber": "601", "unitName": "MG", "derivationCode": "LCCD", "derivationDescription": "Calculated from a daily value percentage per serving size measure", "value": 0.0}, {"nutrientId": 1258, "nutrientName": "Fatty acids, total saturated", "nutrientNumber": "606", "unitName": "G", "derivationCode": "LCCD", "derivationDescription": "Calculated from a daily value percentage per serving size measure", "value": 0.0}, {"nutrientId": 1003, "nutrientName": "Protein", "nutrientNumber": "203", "unitName": "G", "derivationCode": "LCCS", "derivationDescription": "Calculated from value per serving size measure", "value": 0.0}, {"nutrientId": 1005, "nutrientName": "Carbohydrate, by difference", "nutrientNumber": "205", "unitName": "G", "derivationCode": "LCCS", "derivationDescription": "Calculated from value per serving size measure", "value": 95.4}, {"nutrientId": 1008, "nutrientName": "Energy", "nutrientNumber": "208", "unitName": "KCAL", "derivationCode": "LCCS", "derivationDescription": "Calculated from value per serving size measure", "value": 385}, {"nutrientId": 2000, "nutrientName": "Sugars, total including NLEA", "nutrientNumber": "269", "unitName": "G", "derivationCode": "LCCS", "derivationDescription": "Calculated from value per serving size measure", "value": 92.3}, {"nutrientId": 1257, "nutrientName": "Fatty acids, total trans", "nutrientNumber": "605", "unitName": "G", "derivationCode": "LCCS", "derivationDescription": "Calculated from value per serving size measure", "value": 0.0}]}, {"fdcId": 991195, "description": "DASANI, UNSWEETENED SPARKLING WATER BEVERAGE, LEMON, LEMON", "lowercaseDescription": "dasani, unsweetened sparkling water beverage, lemon, lemon", "dataType": "Branded", "gtinUpc": "049000168877", "publishedDate": "2020-06-26", "brandOwner": "Coca-Cola USA Operations", "ingredients": "CARBONATED WATER, NATURAL FLAVORS.", "allHighlightFields": "<b>Ingredients</b>: CARBONATED <em>WATER</em>, NATURAL FLAVORS.", "score": -8.397956, "foodNutrients": []}, {"fdcId": 992259, "description": "DASANI, UNSWEETENED SPARKLING WATER BEVERAGE, LIME, LIME", "lowercaseDescription": "dasani, unsweetened sparkling water beverage, lime, lime", "dataType": "Branded", "gtinUpc": "049000168846", "publishedDate": "2020-06-26", "brandOwner": "Coca-Cola USA Operations", "ingredients": "CARBONATED WATER, NATURAL FLAVORS.", "allHighlightFields": "<b>Ingredients</b>: CARBONATED <em>WATER</em>, NATURAL FLAVORS.", "score": -8.397956, "foodNutrients": []}, {"fdcId": 503649, "description": "THE PEPPER BOTTLE COCONUT WATER", "lowercaseDescription": "the pepper bottle coconut water", "dataType": "Branded", "gtinUpc": "859808004112", "publishedDate": "2019-04-01", "brandOwner": "CLEARLY Z", "ingredients": "WATER, COCONUT WATER, SUGAR, NATURAL FLAVOR, SEA SALT, CITRIC ACID, POTASSIUM CHLORIDE (ELECTROLYTES).", "allHighlightFields": "<b>Ingredients</b>: <em>WATER</em>, COCONUT <em>WATER</em>, SUGAR, NATURAL FLAVOR, SEA SALT, CITRIC ACID, POTASSIUM CHLORIDE (ELECTROLYTES).", "score": -30.539127, "foodNutrients": [{"nutrientId": 1004, "nutrientName": "Total lipid (fat)", "nutrientNumber": "204", "unitName": "G", "derivationCode": "LCCD", "derivationDescription": "Calculated from a daily value percentage per serving size measure", "value": 0.0}, {"nutrientId": 1079, "nutrientName": "Fiber, total dietary", "nutrientNumber": "291", "unitName": "G", "derivationCode": "LCCD", "derivationDescription": "Calculated from a daily value percentage per serving size measure", "value": 0.0}, {"nutrientId": 1087, "nutrientName": "Calcium, Ca", "nutrientNumber": "301", "unitName": "MG", "derivationCode": "LCCD", "derivationDescription": "Calculated from a daily value percentage per serving size measure", "value": 0.0}, {"nutrientId": 1089, "nutrientName": "Iron, Fe", "nutrientNumber": "303", "unitName": "MG", "derivationCode": "LCCD", "derivationDescription": "Calculated from a daily value percentage per serving size measure", "value": 0.0}, {"nutrientId": 1104, "nutrientName": "Vitamin A, IU", "nutrientNumber": "318", "unitName": "IU", "derivationCode": "LCCD", "derivationDescription": "Calculated from a daily value percentage per serving size measure", "value": 0.0}, {"nutrientId": 1162, "nutrientName": "Vitamin C, total ascorbic acid", "nutrientNumber": "401", "unitName": "MG", "derivationCode": "LCCD", "derivationDescription": "Calculated from a daily value percentage per serving size measure", "value": 0.0}, {"nutrientId": 1253, "nutrientName": "Cholesterol", "nutrientNumber": "601", "unitName": "MG", "derivationCode": "LCCD", "derivationDescription": "Calculated from a daily value percentage per serving size measure", "value": 0.0}, {"nutrientId": 1258, "nutrientName": "Fatty acids, total saturated", "nutrientNumber": "606", "unitName": "G", "derivationCode": "LCCD", "derivationDescription": "Calculated from a daily value percentage per serving size measure", "value": 0.0}, {"nutrientId": 1003, "nutrientName": "Protein", "nutrientNumber": "203", "unitName": "G", "derivationCode": "LCCS", "derivationDescription": "Calculated from value per serving size measure", "value": 0.0}, {"nutrientId": 1005, "nutrientName": "Carbohydrate, by difference", "nutrientNumber": "205", "unitName": "G", "derivationCode": "LCCS", "derivationDescription": "Calculated from value per serving size measure", "value": 5.83}, {"nutrientId": 1008, "nutrientName": "Energy", "nutrientNumber": "208", "unitName": "KCAL", "derivationCode": "LCCS", "derivationDescription": "Calculated from value per serving size measure", "value": 21.0}, {"nutrientId": 2000, "nutrientName": "Sugars, total including NLEA", "nutrientNumber": "269", "unitName": "G", "derivationCode": "LCCS", "derivationDescription": "Calculated from value per serving size measure", "value": 5.42}, {"nutrientId": 1092, "nutrientName": "Potassium, K", "nutrientNumber": "306", "unitName": "MG", "derivationCode": "LCCS", "derivationDescription": "Calculated from value per serving size measure", "value": 19.0}, {"nutrientId": 1093, "nutrientName": "Sodium, Na", "nutrientNumber": "307", "unitName": "MG", "derivationCode": "LCCS", "derivationDescription": "Calculated from value per serving size measure", "value": 19.0}, {"nutrientId": 1257, "nutrientName": "Fatty acids, total trans", "nutrientNumber": "605", "unitName": "G", "derivationCode": "LCCS", "derivationDescription": "Calculated from value per serving size measure", "value": 0.0}]}, {"fdcId": 991207, "description": "DASANI, NATURALLY FLAVORED SPARKLING WATER BEVERAGE, LIME, LIME", "lowercaseDescription": "dasani, naturally flavored sparkling water beverage, lime, lime", "dataType": "Branded", "gtinUpc": "049000068498", "publishedDate": "2020-06-26", "brandOwner": "Coca-Cola USA Operations", "ingredients": "CARBONATED WATER, NATURAL FLAVOR.", "allHighlightFields": "<b>Ingredients</b>: CARBONATED <em>WATER</em>, NATURAL FLAVOR.", "score": -46.45789, "foodNutrients": []}, {"fdcId": 978981, "description": "DASANI, SPARKLING WATER BEVERAGE, BLACK CHERRY, BLACK CHERRY", "lowercaseDescription": "dasani, sparkling water beverage, black cherry, black cherry", "dataType": "Branded", "gtinUpc": "049000068801", "publishedDate": "2020-06-26", "brandOwner": "Coca-Cola USA Operations", "ingredients": "CARBONATED WATER, NATURAL FLAVORS. UNSWEETENED", "allHighlightFields": "<b>Ingredients</b>: CARBONATED <em>WATER</em>, NATURAL FLAVORS. UNSWEETENED", "score": -46.45789, "foodNutrients": []}, {"fdcId": 972527, "description": "DASANI, SPARKLING WATER BEVERAGE, STRAWBERRY GUAVA, STRAWBERRY GUAVA", "lowercaseDescription": "dasani, sparkling water beverage, strawberry guava, strawberry guava", "dataType": "Branded", "gtinUpc": "049000072426", "publishedDate": "2020-06-26", "brandOwner": "Coca-Cola USA Operations", "ingredients": "CARBONATED WATER, NATURAL FLAVORS.", "allHighlightFields": "<b>Ingredients</b>: CARBONATED <em>WATER</em>, NATURAL FLAVORS.", "score": -46.45789, "foodNutrients": []}, {"fdcId": 978213, "description": "DASANI, SPARKLING WATER BEVERAGE, TROPICAL PINEAPPLE, TROPICAL PINEAPPLE", "lowercaseDescription": "dasani, sparkling water beverage, tropical pineapple, tropical pineapple", "dataType": "Branded", "gtinUpc": "049000068771", "publishedDate": "2020-06-26", "brandOwner": "Coca-Cola USA Operations", "ingredients": "CARBONATED WATER, NATURAL FLAVORS. UNSWEETENED .", "allHighlightFields": "<b>Ingredients</b>: CARBONATED <em>WATER</em>, NATURAL FLAVORS. UNSWEETENED .", "score": -46.45789, "foodNutrients": []}, {"fdcId": 972549, "description": "DASANI, SPARKLING WATER BEVERAGE, WHITE PEACH, WHITE PEACH", "lowercaseDescription": "dasani, sparkling water beverage, white peach, white peach", "dataType": "Branded", "gtinUpc": "049000072402", "publishedDate": "2020-06-26", "brandOwner": "Coca-Cola USA Operations", "ingredients": "CARBONATED WATER, NATURAL FLAVORS.", "allHighlightFields": "<b>Ingredients</b>: CARBONATED <em>WATER</em>, NATURAL FLAVORS.", "score": -46.45789, "foodNutrients": []}, {"fdcId": 421517, "description": "GALERIE, WATER BOTTLE WITH CANDY, FRUIT", "lowercaseDescription": "galerie, water bottle with candy, fruit", "dataType": "Branded", "gtinUpc": "768395499884", "publishedDate": "2019-04-01", "brandOwner": "Ross Acquisition Inc.", "ingredients": "DEXTROSE, CORN SYRUP, CORN STARCH, MAGNESIUM STEARATE, CITRIC ACID, MALTODEXTRIN, ARTIFICIAL FLAVOR, GUM ARABIC, SHELLAC, CARNAUBA WAX, TITANIUM DIOXIDE (FOR COLOR), YELLOW 5, YELLOW 6, BLUE 1 LAKE.", "allHighlightFields": "", "score": -76.051895, "foodNutrients": [{"nutrientId": 1004, "nutrientName": "Total lipid (fat)", "nutrientNumber": "204", "unitName": "G", "derivationCode": "LCCD", "derivationDescription": "Calculated from a daily value percentage per serving size measure", "value": 0.0}, {"nutrientId": 1093, "nutrientName": "Sodium, Na", "nutrientNumber": "307", "unitName": "MG", "derivationCode": "LCCD", "derivationDescription": "Calculated from a daily value percentage per serving size measure", "value": 0.0}, {"nutrientId": 1003, "nutrientName": "Protein", "nutrientNumber": "203", "unitName": "G", "derivationCode": "LCCS", "derivationDescription": "Calculated from value per serving size measure", "value": 0.0}, {"nutrientId": 1005, "nutrientName": "Carbohydrate, by difference", "nutrientNumber": "205", "unitName": "G", "derivationCode": "LCCS", "derivationDescription": "Calculated from value per serving size measure", "value": 94.1}, {"nutrientId": 1008, "nutrientName": "Energy", "nutrientNumber": "208", "unitName": "KCAL", "derivationCode": "LCCS", "derivationDescription": "Calculated from value per serving size measure", "value": 412}, {"nutrientId": 2000, "nutrientName": "Sugars, total including NLEA", "nutrientNumber": "269", "unitName": "G", "derivationCode": "LCCS", "derivationDescription": "Calculated from value per serving size measure", "value": 94.1}]}, {"fdcId": 992299, "description": "DASANI, UNSWEETENED SPARKLING WATER BEVERAGE, BLACK CHERRY, BLACK CHERRY", "lowercaseDescription": "dasani, unsweetened sparkling water beverage, black cherry, black cherry", "dataType": "Branded", "gtinUpc": "049000168860", "publishedDate": "2020-06-26", "brandOwner": "Coca-Cola USA Operations", "ingredients": "CARBONATED WATER, NATURAL FLAVORS.", "allHighlightFields": "<b>Ingredients</b>: CARBONATED <em>WATER</em>, NATURAL FLAVORS.", "score": -79.862015, "foodNutrients": []}, {"fdcId": 992241, "description": "DASANI, UNSWEETENED SPARKLING WATER BEVERAGE, RASPBERRY LEMONADE, RASPBERRY LEMONADE", "lowercaseDescription": "dasani, unsweetened sparkling water beverage, raspberry lemonade, raspberry lemonade", "dataType": "Branded", "gtinUpc": "049000168822", "publishedDate": "2020-06-26", "brandOwner": "Coca-Cola USA Operations", "ingredients": "CARBONATED WATER, NATURAL FLAVORS.", "allHighlightFields": "<b>Ingredients</b>: CARBONATED <em>WATER</em>, NATURAL FLAVORS.", "score": -79.862015, "foodNutrients": []}, {"fdcId": 991227, "description": "DASANI, UNSWEETENED SPARKLING WATER BEVERAGE, TROPICAL PINEAPPLE, TROPICAL PINEAPPLE", "lowercaseDescription": "dasani, unsweetened sparkling water beverage, tropical pineapple, tropical pineapple", "dataType": "Branded", "gtinUpc": "049000168839", "publishedDate": "2020-06-26", "brandOwner": "Coca-Cola USA Operations", "ingredients": "CARBONATED WATER, NATURAL FLAVORS.", "allHighlightFields": "<b>Ingredients</b>: CARBONATED <em>WATER</em>, NATURAL FLAVORS.", "score": -79.862015, "foodNutrients": []}, {"fdcId": 974527, "description": "DASANI, FLAVOR ENHANCER, LIME, LIME", "lowercaseDescription": "dasani, flavor enhancer, lime, lime", "dataType": "Branded", "gtinUpc": "04926104", "publishedDate": "2020-06-26", "brandOwner": "Coca-Cola USA Operations", "ingredients": "WATER, NATURAL FLAVORS, CITRIC ACID, QUILLAIA EXTRACT, POTASSIUM BENZOATE AND POTASSIUM SORBATE (TO PROTECT TASTE).", "allHighlightFields": "<b>Ingredients</b>: <em>WATER</em>, NATURAL FLAVORS, CITRIC ACID, QUILLAIA EXTRACT, POTASSIUM BENZOATE AND POTASSIUM SORBATE (TO PROTECT TASTE).", "score": -117.107086, "foodNutrients": []}, {"fdcId": 421693, "description": "COLA BOTTLES", "lowercaseDescription": "cola bottles", "dataType": "Branded", "gtinUpc": "814042013887", "publishedDate": "2019-04-01", "brandOwner": "J.LUEHDERS", "ingredients": "GLUCOSE SYRUP, SUGAR, GELATIN (GELLING AGENT), CITRIC ACID (ACIDIFIER), NATURAL FLAVOR, CANDIED SUGAR, CARNAUBA WAX (SEPARATING AGENT)", "allHighlightFields": "", "score": -178.86694, "foodNutrients": [{"nutrientId": 1004, "nutrientName": "Total lipid (fat)", "nutrientNumber": "204", "unitName": "G", "derivationCode": "LCCD", "derivationDescription": "Calculated from a daily value percentage per serving size measure", "value": 0.0}, {"nutrientId": 1093, "nutrientName": "Sodium, Na", "nutrientNumber": "307", "unitName": "MG", "derivationCode": "LCCD", "derivationDescription": "Calculated from a daily value percentage per serving size measure", "value": 0.0}, {"nutrientId": 1253, "nutrientName": "Cholesterol", "nutrientNumber": "601", "unitName": "MG", "derivationCode": "LCCD", "derivationDescription": "Calculated from a daily value percentage per serving size measure", "value": 0.0}, {"nutrientId": 1258, "nutrientName": "Fatty acids, total saturated", "nutrientNumber": "606", "unitName": "G", "derivationCode": "LCCD", "derivationDescription": "Calculated from a daily value percentage per serving size measure", "value": 0.0}, {"nutrientId": 1003, "nutrientName": "Protein", "nutrientNumber": "203", "unitName": "G", "derivationCode": "LCCS", "derivationDescription": "Calculated from value per serving size measure", "value": 6.67}, {"nutrientId": 1005, "nutrientName": "Carbohydrate, by difference", "nutrientNumber": "205", "unitName": "G", "derivationCode": "LCCS", "derivationDescription": "Calculated from value per serving size measure", "value": 76.7}, {"nutrientId": 1008, "nutrientName": "Energy", "nutrientNumber": "208", "unitName": "KCAL", "derivationCode": "LCCS", "derivationDescription": "Calculated from value per serving size measure", "value": 333}, {"nutrientId": 2000, "nutrientName": "Sugars, total including NLEA", "nutrientNumber": "269", "unitName": "G", "derivationCode": "LCCS", "derivationDescription": "Calculated from value per serving size measure", "value": 36.7}, {"nutrientId": 1257, "nutrientName": "Fatty acids, total trans", "nutrientNumber": "605", "unitName": "G", "derivationCode": "LCCS", "derivationDescription": "Calculated from value per serving size measure", "value": 0.0}]}, {"fdcId": 476173, "description": "FIZZY BOTTLES", "lowercaseDescription": "fizzy bottles", "dataType": "Branded", "gtinUpc": "025675122734", "publishedDate": "2019-04-01", "brandOwner": "Paskesz Candy Company", "ingredients": "DEXTROSE, GLUCOSE, CITRIC ACID, ARTIFICIAL FLAVORS AND COLORS, FD&C YELLOW 5, YELLOW 6, BLUE 1, RED 40.", "allHighlightFields": "", "score": -178.86694, "foodNutrients": [{"nutrientId": 1004, "nutrientName": "Total lipid (fat)", "nutrientNumber": "204", "unitName": "G", "derivationCode": "LCCD", "derivationDescription": "Calculated from a daily value percentage per serving size measure", "value": 0.0}, {"nutrientId": 1079, "nutrientName": "Fiber, total dietary", "nutrientNumber": "291", "unitName": "G", "derivationCode": "LCCD", "derivationDescription": "Calculated from a daily value percentage per serving size measure", "value": 0.0}, {"nutrientId": 1087, "nutrientName": "Calcium, Ca", "nutrientNumber": "301", "unitName": "MG", "derivationCode": "LCCD", "derivationDescription": "Calculated from a daily value percentage per serving size measure", "value": 0.0}, {"nutrientId": 1089, "nutrientName": "Iron, Fe", "nutrientNumber": "303", "unitName": "MG", "derivationCode": "LCCD", "derivationDescription": "Calculated from a daily value percentage per serving size measure", "value": 0.0}, {"nutrientId": 1093, "nutrientName": "Sodium, Na", "nutrientNumber": "307", "unitName": "MG", "derivationCode": "LCCD", "derivationDescription": "Calculated from a daily value percentage per serving size measure", "value": 0.0}, {"nutrientId": 1104, "nutrientName": "Vitamin A, IU", "nutrientNumber": "318", "unitName": "IU", "derivationCode": "LCCD", "derivationDescription": "Calculated from a daily value percentage per serving size measure", "value": 0.0}, {"nutrientId": 1162, "nutrientName": "Vitamin C, total ascorbic acid", "nutrientNumber": "401", "unitName": "MG", "derivationCode": "LCCD", "derivationDescription": "Calculated from a daily value percentage per serving size measure", "value": 0.0}, {"nutrientId": 1253, "nutrientName": "Cholesterol", "nutrientNumber": "601", "unitName": "MG", "derivationCode": "LCCD", "derivationDescription": "Calculated from a daily value percentage per serving size measure", "value": 0.0}, {"nutrientId": 1258, "nutrientName": "Fatty acids, total saturated", "nutrientNumber": "606", "unitName": "G", "derivationCode": "LCCD", "derivationDescription": "Calculated from a daily value percentage per serving size measure", "value": 0.0}, {"nutrientId": 1003, "nutrientName": "Protein", "nutrientNumber": "203", "unitName": "G", "derivationCode": "LCCS", "derivationDescription": "Calculated from value per serving size measure", "value": 0.0}, {"nutrientId": 1005, "nutrientName": "Carbohydrate, by difference", "nutrientNumber": "205", "unitName": "G", "derivationCode": "LCCS", "derivationDescription": "Calculated from value per serving size measure", "value": 83.3}, {"nutrientId": 1008, "nutrientName": "Energy", "nutrientNumber": "208", "unitName": "KCAL", "derivationCode": "LCCS", "derivationDescription": "Calculated from value per serving size measure", "value": 333}, {"nutrientId": 2000, "nutrientName": "Sugars, total including NLEA", "nutrientNumber": "269", "unitName": "G", "derivationCode": "LCCS", "derivationDescription": "Calculated from value per serving size measure", "value": 83.3}, {"nutrientId": 1257, "nutrientName": "Fatty acids, total trans", "nutrientNumber": "605", "unitName": "G", "derivationCode": "LCCS", "derivationDescription": "Calculated from value per serving size measure", "value": 0.0}]}, {"fdcId": 550205, "description": "SPRAY BOTTLES", "lowercaseDescription": "spray bottles", "dataType": "Branded", "gtinUpc": "040600107860", "publishedDate": "2019-04-01", "brandOwner": "Lipton", "ingredients": "WATER, SOYBEAN OIL*, SALT, SWEET CREAM BUTTERMILK**, XANTHAN GUM, SOY LECITHIN, POLYSORBATE 60, LACTIC ACID, (POTASSIUM SORBATE, CALCIUM DISODIUM EDTA) USED TO PROTECT QUALITY, NATURAL AND ARTIFICIAL FLAVOR, VITAMIN A PALMITATE, BETA CAROTENE (COLOR).", "allHighlightFields": "<b>Ingredients</b>: <em>WATER</em>, SOYBEAN OIL*, SALT, SWEET CREAM BUTTERMILK**, XANTHAN GUM, SOY LECITHIN, POLYSORBATE 60", "score": -178.86694, "foodNutrients": [{"nutrientId": 1004, "nutrientName": "Total lipid (fat)", "nutrientNumber": "204", "unitName": "G", "derivationCode": "LCCD", "derivationDescription": "Calculated from a daily value percentage per serving size measure", "value": 0.0}, {"nutrientId": 1005, "nutrientName": "Carbohydrate, by difference", "nutrientNumber": "205", "unitName": "G", "derivationCode": "LCCD", "derivationDescription": "Calculated from a daily value percentage per serving size measure", "value": 0.0}, {"nutrientId": 1093, "nutrientName": "Sodium, Na", "nutrientNumber": "307", "unitName": "MG", "derivationCode": "LCCD", "derivationDescription": "Calculated from a daily value percentage per serving size measure", "value": 0.0}, {"nutrientId": 1003, "nutrientName": "Protein", "nutrientNumber": "203", "unitName": "G", "derivationCode": "LCCS", "derivationDescription": "Calculated from value per serving size measure", "value": 0.0}, {"nutrientId": 1008, "nutrientName": "Energy", "nutrientNumber": "208", "unitName": "KCAL", "derivationCode": "LCCS", "derivationDescription": "Calculated from value per serving size measure", "value": 0.0}]}], "aggregations": {"dataType": {"Branded": 159238, "Survey (FNDDS)": 265, "SR Legacy": 254, "Foundation": 3}, "nutrients": {}}}